<?xml version="1.0" encoding="UTF-8" standalone="no"?>
<svg
   xmlns:dc="http://purl.org/dc/elements/1.1/"
   xmlns:cc="http://creativecommons.org/ns#"
   xmlns:rdf="http://www.w3.org/1999/02/22-rdf-syntax-ns#"
   xmlns:svg="http://www.w3.org/2000/svg"
   xmlns="http://www.w3.org/2000/svg"
   xmlns:xlink="http://www.w3.org/1999/xlink"
   xmlns:sodipodi="http://sodipodi.sourceforge.net/DTD/sodipodi-0.dtd"
   xmlns:inkscape="http://www.inkscape.org/namespaces/inkscape"
   sodipodi:docname="elements-f06.svg"
   inkscape:version="1.0beta1 (a4ee55bc41, 2019-11-15)"
   sodipodi:version="0.32"
   id="svg2120"
   viewBox="0 0 300 100"
   height="100"
   width="300"
   version="1.1">
  <defs
     id="defs3">
    <linearGradient
       id="linearGradient2553">
      <stop
         id="stop2554"
         offset="0.0000000"
         style="stop-color:#ff0000;stop-opacity:1.0000000;" />
      <stop
         id="stop2555"
         offset="0.16502975"
         style="stop-color:#e2ff00;stop-opacity:1.0000000;" />
      <stop
         id="stop2556"
         offset="0.27658993"
         style="stop-color:#24ff00;stop-opacity:1.0000000;" />
      <stop
         id="stop2557"
         offset="0.51112521"
         style="stop-color:#00e8ff;stop-opacity:1.0000000;" />
      <stop
         id="stop2558"
         offset="0.76520509"
         style="stop-color:#1500ff;stop-opacity:1.0000000;" />
      <stop
         id="stop2559"
         offset="1.0000000"
         style="stop-color:#ff00ed;stop-opacity:1.0000000;" />
      <stop
         id="stop2560"
         offset="1.0000000"
         style="stop-color:#ff0000;stop-opacity:1.0000000;" />
    </linearGradient>
    <linearGradient
       gradientUnits="userSpaceOnUse"
       gradientTransform="matrix(1.7032879,0,0,0.56557292,-7.1905355,-1157.8818)"
       y2="2135.3384"
       x2="180.35104"
       y1="2135.3384"
       x1="4.2215614"
       id="linearGradient2620"
       xlink:href="#linearGradient2553"
       inkscape:collect="always" />
  </defs>
  <sodipodi:namedview
     inkscape:window-maximized="1"
     inkscape:window-y="27"
     inkscape:window-x="54"
     inkscape:window-height="1016"
     inkscape:window-width="1866"
     inkscape:guide-bbox="true"
     showguides="true"
     units="px"
     showgrid="false"
     inkscape:document-rotation="0"
     inkscape:current-layer="layer1"
     inkscape:document-units="px"
     inkscape:cy="-2.7978518"
     inkscape:cx="202.98743"
     inkscape:zoom="1.4"
     inkscape:pageshadow="2"
     inkscape:pageopacity="0.0"
     borderopacity="1.0"
     bordercolor="#666666"
     pagecolor="#ffffff"
     id="base"
     inkscape:lockguides="true" />
  <metadata
     id="metadata4">
    <rdf:RDF>
      <cc:Work
         rdf:about="">
        <dc:format>image/svg+xml</dc:format>
        <dc:type
           rdf:resource="http://purl.org/dc/dcmitype/StillImage" />
        <dc:title />
      </cc:Work>
    </rdf:RDF>
  </metadata>
  <g
     id="layer1"
     inkscape:groupmode="layer"
     inkscape:label="Layer 1">
    <rect
       y="0.24454838"
       x="0.2445485"
       height="99.124901"
       width="299.51016"
       id="rect2045"
       style="fill:url(#linearGradient2620);fill-opacity:1;fill-rule:evenodd;stroke:#000000;stroke-width:0.489097" />
  </g>
</svg>
