<?xml version="1.0" encoding="UTF-8" standalone="no"?>
<!-- Created with Inkscape (http://www.inkscape.org/) -->

<svg
   xmlns:dc="http://purl.org/dc/elements/1.1/"
   xmlns:cc="http://creativecommons.org/ns#"
   xmlns:rdf="http://www.w3.org/1999/02/22-rdf-syntax-ns#"
   xmlns:svg="http://www.w3.org/2000/svg"
   xmlns="http://www.w3.org/2000/svg"
   xmlns:xlink="http://www.w3.org/1999/xlink"
   xmlns:sodipodi="http://sodipodi.sourceforge.net/DTD/sodipodi-0.dtd"
   xmlns:inkscape="http://www.inkscape.org/namespaces/inkscape"
   sodipodi:docname="_tutorial-header.zh_TW.svg"
   inkscape:version="0.48+devel r10003 custom"
   sodipodi:version="0.32"
   id="svg2708"
   height="1052.3622047"
   width="256.00000pt"
   inkscape:output_extension="org.inkscape.output.svg.inkscape"
   version="1.1">
  <defs
     id="defs3">
    <linearGradient
       id="linearGradient841">
      <stop
         id="stop842"
         offset="0.00000000"
         style="stop-color:#0082ab;stop-opacity:1;" />
      <stop
         id="stop843"
         offset="1"
         style="stop-color:white;stop-opacity:0;" />
    </linearGradient>
    <linearGradient
       y2="0.91666669"
       x2="0.51618570"
       y1="0.16666391"
       x1="0.51618570"
       id="linearGradient1657"
       xlink:href="#linearGradient841" />
    <filter
       id="filter49"
       color-interpolation-filters="sRGB"
       height="1.2"
       width="1.2"
       y="-0.1"
       x="-0.1"
       inkscape:label="Drop shadow, custom">
      <feFlood
         id="feFlood51"
         flood-opacity="0.686275"
         flood-color="rgb(255,255,255)"
         result="flood" />
      <feComposite
         id="feComposite53"
         in2="SourceGraphic"
         in="flood"
         operator="in"
         result="composite1" />
      <feGaussianBlur
         id="feGaussianBlur55"
         in="composite1"
         stdDeviation="20"
         result="blur" />
      <feOffset
         id="feOffset57"
         dx="0"
         dy="0"
         result="offset" />
      <feComposite
         id="feComposite59"
         in2="offset"
         in="SourceGraphic"
         operator="over"
         result="composite2" />
    </filter>
  </defs>
  <sodipodi:namedview
     inkscape:window-y="25"
     inkscape:window-x="0"
     inkscape:window-height="947"
     inkscape:window-width="1235"
     inkscape:current-layer="layer1"
     inkscape:document-units="px"
     inkscape:cy="951.38056"
     inkscape:cx="177.40158"
     inkscape:zoom="2"
     inkscape:pageshadow="2"
     inkscape:pageopacity="0.0"
     borderopacity="1.0"
     bordercolor="#666666"
     pagecolor="#ffffff"
     id="base"
     showgrid="false"
     inkscape:window-maximized="0" />
  <metadata
     id="metadata4">
    <rdf:RDF>
      <cc:Work
         rdf:about="">
        <dc:format>image/svg+xml</dc:format>
        <dc:type
           rdf:resource="http://purl.org/dc/dcmitype/StillImage" />
      </cc:Work>
    </rdf:RDF>
  </metadata>
  <g
     id="layer1"
     inkscape:groupmode="layer"
     inkscape:label="Layer 1">
    <rect
       rx="0.0000000"
       ry="6.1828303"
       y="0.27752987"
       x="0.18214770"
       height="69.247704"
       width="319.89233"
       id="rect582"
       style="stroke-width:3.0611501;stroke:none;fill-rule:evenodd;fill-opacity:1.0000000;fill:url(#linearGradient1657);font-size:12.000000" />
    <path
       id="path93"
       d="M 150.96825,4.9606428 L 141.38875,4.9606428 L 141.38875,5.5735708 L 141.67566,5.5735708 C 142.96674,5.5735708 143.11020,5.6387828 143.11020,6.1864998 L 143.11020,6.5646939 L 143.11020,12.772216 L 143.11020,13.150409 C 143.11020,13.698134 142.96674,13.763338 141.67566,13.763338 L 141.38875,13.763338 L 141.38875,14.376267 L 151.17546,14.376267 L 151.49425,10.894312 L 150.79292,10.894312 C 150.58571,11.807180 150.21911,12.615728 149.83656,12.993914 C 149.34245,13.515559 148.43391,13.763338 147.09501,13.763338 L 146.04302,13.763338 C 145.56485,13.763338 145.16636,13.685090 145.02291,13.567719 C 144.91133,13.489472 144.89539,13.411232 144.89539,13.137365 L 144.89539,9.8119059 L 145.21418,9.8119059 C 146.18648,9.8119059 146.58495,9.8901539 146.90374,10.164012 C 147.31816,10.503082 147.47755,10.920392 147.50944,11.689817 L 148.25858,11.689817 L 148.25858,7.4123579 L 147.50944,7.4123579 C 147.42973,8.6903759 146.79216,9.1989769 145.27794,9.1989769 L 144.89539,9.1989769 L 144.89539,6.2256238 C 144.89539,5.6648628 145.03885,5.5735708 145.89956,5.5735708 L 146.72841,5.5735708 C 148.13106,5.5735708 148.81645,5.6909428 149.35839,6.0560928 C 149.88438,6.3951548 150.26692,7.1254559 150.50602,8.2991459 L 151.19140,8.2991459 L 150.96825,4.9606428 z M 129.81685,10.190100 L 131.61799,10.190100 C 133.05252,10.190100 133.80166,10.098809 134.43923,9.8510299 C 135.57093,9.4076319 136.20850,8.5730119 136.20850,7.5427659 C 136.20850,6.5516499 135.65062,5.7952698 134.59863,5.3649158 C 133.97699,5.1040938 132.98876,4.9606428 131.88895,4.9606428 L 126.31021,4.9606428 L 126.31021,5.5735708 L 126.59712,5.5735708 C 127.88820,5.5735708 128.03165,5.6387828 128.03165,6.1864998 L 128.03165,6.5646939 L 128.03165,12.772216 L 128.03165,13.150409 C 128.03165,13.698134 127.88820,13.763338 126.59712,13.763338 L 126.31021,13.763338 L 126.31021,14.376267 L 131.66581,14.376267 L 131.66581,13.763338 L 131.25138,13.763338 C 129.96030,13.763338 129.81685,13.698134 129.81685,13.150409 L 129.81685,12.772216 L 129.81685,10.190100 z M 129.81685,9.5771709 L 129.81685,6.2386678 C 129.81685,5.6387828 129.91248,5.5735708 130.78915,5.5735708 L 131.80926,5.5735708 C 133.46694,5.5735708 134.24796,6.2125878 134.24796,7.5949329 C 134.24796,8.9381549 133.43506,9.5771709 131.74550,9.5771709 L 129.81685,9.5771709 z M 115.94969,4.7780748 L 115.28024,4.7780748 L 111.61420,12.380985 C 111.29542,13.059118 111.23167,13.150409 110.99258,13.359064 C 110.73755,13.606843 110.29125,13.763338 109.86089,13.763338 L 109.79713,13.763338 L 109.79713,14.376267 L 114.02103,14.376267 L 114.02103,13.763338 L 113.70225,13.763338 C 112.84153,13.763338 112.41117,13.515559 112.41117,13.020002 C 112.41117,12.863507 112.45899,12.680932 112.55462,12.472277 L 113.08062,11.324666 L 117.30453,11.324666 L 118.16525,13.072162 C 118.26088,13.267780 118.29276,13.359064 118.29276,13.424268 C 118.29276,13.632923 117.89428,13.763338 117.30453,13.763338 L 116.63508,13.763338 L 116.63508,14.376267 L 121.57624,14.376267 L 121.57624,13.763338 L 121.35310,13.763338 C 120.55613,13.763338 120.38080,13.659010 120.01420,12.928710 L 115.94969,4.7780748 z M 115.16866,6.9168009 L 116.96980,10.620453 L 113.39940,10.620453 L 115.16866,6.9168009 z M 104.17057,4.8693588 L 103.56488,4.8693588 L 102.92731,5.6387828 C 101.79562,4.9606428 101.17399,4.7650308 100.10606,4.7650308 C 98.559938,4.7650308 97.284798,5.2736318 96.200928,6.3299508 C 95.180811,7.3210739 94.702641,8.4165169 94.702641,9.7597459 C 94.702641,12.563560 96.950078,14.571878 100.09012,14.571878 C 102.64040,14.571878 104.26621,13.346020 104.63281,11.155135 L 103.88367,11.050800 C 103.72427,11.741976 103.53300,12.211454 103.24610,12.602684 C 102.59258,13.502516 101.57247,13.958949 100.28139,13.958949 C 97.922368,13.958949 96.806618,12.615728 96.806618,9.8119059 C 96.806618,8.3382689 97.045708,7.3471539 97.587648,6.5646939 C 98.081758,5.8343938 99.069985,5.3779598 100.09012,5.3779598 C 101.20587,5.3779598 102.19410,5.8604738 102.79980,6.6951019 C 103.10264,7.1254559 103.34173,7.6340569 103.70834,8.6382159 L 104.40966,8.6382159 L 104.17057,4.8693588 z M 88.215354,4.8824028 L 87.625607,4.8824028 L 86.988037,5.6648628 C 86.238897,5.0780138 85.218777,4.7650308 84.087100,4.7650308 C 81.999060,4.7650308 80.596403,5.8604738 80.596403,7.4906049 C 80.596403,8.9120749 81.457120,9.6162949 83.800200,10.111852 L 85.314417,10.424835 C 86.493927,10.672614 86.605497,10.698694 86.940227,10.907349 C 87.418407,11.207295 87.673427,11.637649 87.673427,12.146250 C 87.673427,12.667888 87.434337,13.098242 86.956167,13.450355 C 86.430167,13.828542 85.904167,13.971993 85.027507,13.971993 C 83.848010,13.971993 83.003230,13.672047 82.254090,12.993914 C 81.584630,12.380985 81.249910,11.768056 81.010823,10.763905 L 80.325433,10.763905 L 80.389193,14.480595 L 81.010823,14.480595 L 81.728080,13.593806 C 82.796020,14.311056 83.688610,14.571878 85.075327,14.571878 C 87.418407,14.571878 88.916694,13.450355 88.916694,11.702853 C 88.916694,10.894312 88.581964,10.203136 87.960337,9.7075779 C 87.529977,9.3685089 86.908347,9.1468169 85.633197,8.8859939 L 83.927700,8.5338879 C 82.509110,8.2339419 81.839660,7.7253399 81.839660,6.9298439 C 81.839660,6.0169688 82.748200,5.3909968 84.103040,5.3909968 C 85.218777,5.3909968 86.127317,5.7822338 86.764897,6.5255699 C 87.227137,7.0602519 87.514037,7.6079769 87.721247,8.2730659 L 88.406634,8.2730659 L 88.215354,4.8824028 z M 66.665476,10.111852 L 66.665476,6.5646939 L 66.665476,6.1864998 C 66.665476,5.6387828 66.808935,5.5735708 68.100014,5.5735708 L 68.402861,5.5735708 L 68.402861,4.9606428 L 63.158832,4.9606428 L 63.158832,5.5735708 L 63.445744,5.5735708 C 64.736818,5.5735708 64.880276,5.6387828 64.880276,6.1864998 L 64.880276,6.5646939 L 64.880276,12.772216 L 64.880276,13.150409 C 64.880276,13.698134 64.736818,13.763338 63.445744,13.763338 L 63.158832,13.763338 L 63.158832,14.376267 L 68.402861,14.376267 L 68.402861,13.763338 L 68.100014,13.763338 C 66.808935,13.763338 66.665476,13.698134 66.665476,13.150409 L 66.665476,12.772216 L 66.665476,11.116011 L 68.514433,9.5902069 L 71.287871,12.915667 C 71.542896,13.228657 71.606653,13.332984 71.606653,13.463392 C 71.606653,13.672047 71.303811,13.763338 70.522783,13.763338 L 70.028662,13.763338 L 70.028662,14.376267 L 75.479896,14.376267 L 75.479896,13.763338 L 75.177056,13.763338 C 74.300396,13.763338 74.077246,13.672047 73.614998,13.111285 L 69.757696,8.5599679 L 72.132644,6.6168539 C 72.897731,5.9517648 73.870028,5.5735708 74.826396,5.5735708 L 74.826396,4.9606428 L 69.917090,4.9606428 L 69.917090,5.5735708 L 70.315574,5.5735708 C 71.048775,5.5735708 71.351627,5.6909428 71.351627,5.9648018 C 71.351627,6.1473768 71.032840,6.5255699 70.570599,6.9037569 L 66.665476,10.111852 z M 48.845329,4.9606428 L 45.561840,4.9606428 L 45.561840,5.5735708 L 45.960319,5.5735708 C 46.773222,5.5735708 47.139831,5.6778988 47.426732,6.0039248 L 47.426732,11.546365 C 47.426732,13.332984 47.107950,13.711171 45.577780,13.763338 L 45.577780,14.376267 L 50.120510,14.376267 L 50.120510,13.763338 C 48.606244,13.711171 48.287451,13.332984 48.287451,11.546365 L 48.287451,6.7081449 L 55.396408,14.558842 L 56.065863,14.558842 L 56.065863,7.7905439 C 56.065863,6.0039248 56.384651,5.6257388 57.914820,5.5735708 L 57.914820,4.9606428 L 53.372123,4.9606428 L 53.372123,5.5735708 C 54.886352,5.6257388 55.205134,6.0039248 55.205134,7.7905439 L 55.205134,11.885427 L 48.845329,4.9606428 z M 38.484798,6.5646939 L 38.484798,6.1864998 C 38.484798,5.6387828 38.628257,5.5735708 39.903394,5.5735708 L 40.222181,5.5735708 L 40.222181,4.9606428 L 34.946282,4.9606428 L 34.946282,5.5735708 L 35.265070,5.5735708 C 36.556146,5.5735708 36.699604,5.6387828 36.699604,6.1864998 L 36.699604,6.5646939 L 36.699604,12.772216 L 36.699604,13.150409 C 36.699604,13.698134 36.556146,13.763338 35.265070,13.763338 L 34.946282,13.763338 L 34.946282,14.376267 L 40.222181,14.376267 L 40.222181,13.763338 L 39.903394,13.763338 C 38.628257,13.763338 38.484798,13.698134 38.484798,13.150409 L 38.484798,12.772216 L 38.484798,6.5646939 z "
       style="stroke-width:1.0000000pt;fill-opacity:1.0000000;fill:#ffffff" />
    <use
       style="opacity:0.0786517"
       height="1052.3622"
       width="320"
       transform="matrix(2.39436,0,0,2.331219,-82.96365,-14.49494)"
       id="use1325"
       xlink:href="#path93"
       y="0"
       x="0" />
    <g
       id="g839"
       transform="matrix(0.058837,0,0,0.058837,-4.7689003,-3.296641)"
       style="filter:url(#filter49)">
      <path
         style="font-size:12px;fill:#ffffff;fill-rule:evenodd;stroke:#000000;stroke-width:0.93619299pt"
         d="M 397.64309,320.25301 280.39197,282.517 l -29.6497,-157.68253 94.33998,-95.687687 48.51771,17.520281 90.29683,88.949126 -86.2537,184.63682 z"
         id="path805" />
      <path
         style="font-size:12px;fill:#000000;fill-opacity:1;fill-rule:evenodd;stroke-width:1pt"
         d="m 476.95792,339.17168 c 18.82405,3.76439 22.5905,16.94193 18.82405,20.70634 -3.76341,3.76538 -13.17547,7.52979 -20.70534,1.88212 -7.53185,-5.64653 -7.53185,-18.82407 1.88129,-22.58846 z"
         id="path1791" />
      <path
         style="font-size:12px;fill:#000000;fill-opacity:1;fill-rule:evenodd;stroke-width:1pt"
         d="m 286.46194,340.42914 c -1.83424,0.48921 -17.15789,-12.71577 -29.29285,-6.59534 -12.13187,6.11956 -20.27633,19.82286 -8.94233,25.44602 11.33508,5.62316 19.43757,-0.86115 29.37437,-7.83863 9.9379,-6.97642 9.57933,-8.32059 8.86081,-11.01205 z"
         id="path1792" />
      <path
         style="font-size:12px;fill:#000000;fill-opacity:1;fill-rule:evenodd;stroke-width:1pt"
         d="m 510.35756,306.92856 c 10.23738,-2.55977 33.88577,0 30.11932,15.05778 -3.76334,15.06172 -35.76391,9.41193 -56.47317,1.88522 -1.8823,-15.06073 21.52866,-15.73733 26.35385,-16.943 z"
         id="path1793" />
      <path
         style="font-size:12px;fill:#000000;fill-opacity:1;fill-rule:evenodd;stroke-width:1pt"
         d="m 359.2403,21.362537 c -11.31337,0 -22.6056,4.320558 -31.27474,12.989693 L 173.87387,188.41466 c -8.4969,8.49674 -12.76227,19.54347 -12.93118,30.63111 l -0.0585,0 c 0,0.0395 0.0566,0.0774 0.0585,0.11702 -0.002,0.18609 -0.0585,0.36977 -0.0585,0.55586 l 0.2633,0 c 2.94912,11.22052 79.14951,25.52333 87.65118,34.02481 12.83905,12.83917 -49.23346,22.26805 -36.39456,35.10728 12.83906,12.83905 77.59023,24.84256 90.4305,37.6818 12.83908,12.83907 -26.2385,26.51035 -13.39928,39.34942 12.83907,12.83922 55.96669,-3.20939 48.15548,30.28002 17.33829,17.33828 53.51222,9.05882 77.73337,-8.27946 12.83906,-12.83907 -24.62937,-11.70675 -11.7902,-24.54584 12.83907,-12.83923 45.24731,-12.90848 72.55505,-43.62079 -10.99163,-17.09473 -46.98101,-24.37453 -34.14183,-37.21372 12.83906,-12.83906 37.79989,-6.31794 91.65925,-30.77738 26.29193,-11.94081 24.11992,-21.0102 24.01923,-32.00614 -0.002,-0.23138 0,-0.43973 0,-0.67288 l -0.0585,0 C 557.3983,207.95812 553.10345,196.9114 544.60673,188.41466 L 390.54428,34.35223 C 381.87515,25.683095 370.55366,21.362537 359.2403,21.362537 z m -1.31652,20.040402 c 5.02949,0.131024 9.09163,3.965079 17.05628,9.127893 l 72.78909,53.977438 c 0.79681,0.51671 1.55569,1.05573 2.25272,1.60908 0.69703,0.55327 1.33373,1.1401 1.9309,1.72612 0.5972,0.58495 1.14004,1.17206 1.63834,1.78461 0.49726,0.61244 0.94845,1.23853 1.34577,1.8724 0.39844,0.6349 0.75476,1.27981 1.05322,1.93089 0.29867,0.65226 0.53281,1.32502 0.7314,1.98941 0.19976,0.66341 0.36832,1.31895 0.46811,1.98941 0.0999,0.67165 0.14627,1.34516 0.14627,2.01867 l -43.12343,-20.830311 -4.30065,32.562001 -23.72668,-11.11731 -36.62858,24.45807 -14.01366,-48.33101 -18.05098,42.275 -50.40821,5.03205 0.55587,-22.4394 c 0,-5.38972 29.05729,-43.122051 46.75119,-52.105048 l 32.38646,-23.258575 c 4.77873,-3.097693 8.12887,-4.35 11.14657,-4.271388 z m -66.9964,220.210391 c 22.94411,5.95032 48.47561,13.75705 68.95655,13.89664 l 0.87768,9.21566 c -17.53811,-1.80778 -54.64815,-10.27551 -63.39789,-14.74506 l -6.43634,-8.36724 z"
         id="path831" />
    </g>
    <path
       style="opacity:1;fill:#ffffff;fill-opacity:0.110769;fill-rule:nonzero;stroke-width:1pt;stroke-linecap:butt;stroke-linejoin:miter;marker:none;marker-start:none;marker-mid:none;marker-end:none;stroke-miterlimit:4;stroke-dasharray:none;stroke-dashoffset:0;stroke-opacity:1;visibility:visible;font-family:sans-serif"
       d="M 100.21376,10.826945 L 105.90953,10.826945 L 102.41069,22.299848 L 108.83877,22.299848 L 108.26917,24.171317 L 101.84109,24.171317 L 100.29509,28.890665 C 98.993226,32.904826 97.609943,37.75979 96.145322,43.455559 C 94.680701,49.097081 93.948391,52.378927 93.948391,53.301101 C 93.948391,54.548745 94.517987,55.172565 95.657141,55.172565 C 97.664194,55.172565 100.07813,52.406049 102.89887,46.873017 C 103.17012,46.276319 103.57697,45.544004 104.1194,44.676078 L 105.74677,45.489761 C 103.63122,49.883639 102.05809,52.704398 101.0274,53.952042 C 98.803348,56.610068 96.443702,57.939081 93.948391,57.939081 C 92.266805,57.939081 90.910647,57.423751 89.879995,56.393087 C 88.849343,55.308181 88.333998,53.924921 88.333998,52.243315 C 88.333998,50.724444 88.578089,49.015713 89.066308,47.117123 C 89.608779,45.001553 91.344616,38.926066 94.273858,28.890665 L 95.657141,24.171317 L 89.147685,24.171317 L 89.798619,22.299848 L 96.308075,22.299848 L 100.21376,10.826945 z M 141.11506,21.648903 L 147.21767,21.648903 C 142.06433,38.085261 139.48768,48.500379 139.48768,52.894257 C 139.48768,54.521619 139.92165,55.335302 140.78959,55.335302 C 141.82024,55.335302 143.04077,54.358886 144.45114,52.406049 C 145.91576,50.398969 147.19055,47.930802 148.27545,45.001553 L 150.06554,45.733863 C 147.19055,53.870677 143.61033,57.939081 139.32497,57.939081 C 135.63625,57.939081 133.79192,55.877757 133.79192,51.755103 C 133.79192,50.670197 133.92754,48.907223 134.19876,46.466177 C 132.0832,49.720902 130.37445,52.080578 129.07259,53.545203 C 126.46877,56.474456 123.51241,57.939081 120.20345,57.939081 C 118.25061,57.939081 116.62323,57.261014 115.32136,55.904879 C 114.01946,54.548745 113.36852,52.867136 113.36852,50.860055 C 113.36852,49.883639 114.18221,46.601793 115.80958,41.014514 L 117.2742,35.969691 C 118.90154,30.382416 119.71523,26.937832 119.71523,25.635941 C 119.71523,24.605278 119.36263,24.089948 118.65745,24.089948 C 116.37914,24.089948 113.36852,27.670143 109.62559,34.830537 L 107.83551,33.935489 C 111.95815,25.473204 116.10792,21.242063 120.28482,21.242063 C 121.80369,21.242063 123.02422,21.81164 123.94637,22.950794 C 124.92281,24.089948 125.411,25.581698 125.411,27.426041 C 125.411,29.704348 124.86856,32.552233 123.78366,35.969691 L 121.58669,42.885982 C 119.7966,48.527505 118.90154,51.80935 118.90154,52.731524 C 118.90154,54.630113 119.87798,55.579408 121.83082,55.579408 C 123.56666,55.579408 125.46525,54.521619 127.52659,52.406049 C 129.64214,50.290479 131.54073,47.496841 133.22236,44.025136 C 135.77188,38.763328 138.40278,31.304589 141.11506,21.648903 z M 165.17318,10.826945 L 170.86895,10.826945 L 167.37011,22.299848 L 173.79819,22.299848 L 173.2286,24.171317 L 166.80052,24.171317 L 165.25452,28.890665 C 163.95265,32.904826 162.56937,37.75979 161.10475,43.455559 C 159.64013,49.097081 158.90782,52.378927 158.90782,53.301101 C 158.90782,54.548745 159.47741,55.172565 160.61657,55.172565 C 162.62362,55.172565 165.03755,52.406049 167.8583,46.873017 C 168.12955,46.276319 168.53639,45.544004 169.07883,44.676078 L 170.7062,45.489761 C 168.59064,49.883639 167.01752,52.704398 165.98683,53.952042 C 163.76277,56.610068 161.40313,57.939081 158.90782,57.939081 C 157.22623,57.939081 155.87007,57.423751 154.83942,56.393087 C 153.80877,55.308181 153.29342,53.924921 153.29342,52.243315 C 153.29342,50.724444 153.53751,49.015713 154.02573,47.117123 C 154.56821,45.001553 156.30404,38.926066 159.23328,28.890665 L 160.61657,24.171317 L 154.10711,24.171317 L 154.75804,22.299848 L 161.2675,22.299848 L 165.17318,10.826945 z M 193.32686,23.113531 C 189.42118,22.896547 185.94947,26.802217 182.91173,34.830537 C 180.79617,40.417816 179.7384,45.435514 179.7384,49.883639 C 179.7384,54.006289 181.55561,56.067616 185.19004,56.067616 C 188.11932,56.067616 190.66884,54.196148 192.83865,50.453216 C 194.24902,48.066418 195.46955,44.920184 196.50024,41.014514 C 197.53089,37.054601 198.12757,33.338791 198.29032,29.867082 C 198.50729,25.581698 196.85283,23.330512 193.32686,23.113531 z M 193.24549,21.242063 C 196.44598,21.242063 199.04976,22.516833 201.05685,25.066364 C 203.0639,27.561653 204.06747,30.816377 204.06747,34.830537 C 204.06747,39.76687 202.30447,44.757447 198.77854,49.80227 C 194.98136,55.226812 190.3705,57.939081 184.94594,57.939081 C 181.63698,57.939081 178.92471,56.799927 176.80915,54.521619 C 174.69356,52.189068 173.63578,49.232693 173.63578,45.652498 C 173.63578,39.577011 175.85984,33.826999 180.30795,28.402457 C 184.21363,23.628861 188.52616,21.242063 193.24549,21.242063 z M 209.11246,34.098226 L 207.40371,33.365912 C 208.81408,29.894207 210.52283,27.019201 212.52992,24.740893 C 214.53697,22.408339 216.3271,21.242063 217.90018,21.242063 C 221.42614,21.242063 223.18911,23.81872 223.18911,28.972034 C 223.18911,29.894207 223.02639,31.73855 222.70093,34.505066 C 226.44385,25.663063 230.43087,21.242063 234.66202,21.242063 C 235.85543,21.242063 236.85895,21.621781 237.67264,22.381217 C 238.54058,23.086406 238.97455,23.954336 238.97455,24.984996 C 238.97455,25.852922 238.6762,26.585236 238.07948,27.181935 C 237.4828,27.778637 236.75049,28.076986 235.88255,28.076986 C 234.03821,28.076986 233.11602,27.019201 233.11602,24.903631 C 233.11602,24.306928 232.92618,24.008579 232.54647,24.008579 C 232.004,24.008579 231.24456,24.496787 230.26816,25.473204 C 229.29172,26.449624 228.45095,27.588778 227.74572,28.890665 C 225.57592,32.796335 222.04995,42.126547 217.16787,56.881296 L 211.06526,56.881296 C 213.61482,49.232693 215.26928,43.645418 216.02872,40.119467 C 217.22212,34.586435 217.81884,30.572275 217.81884,28.076986 C 217.81884,25.418961 217.38487,24.089948 216.51694,24.089948 C 215.7575,24.089948 214.64547,25.066364 213.18085,27.019201 C 211.77048,28.972034 210.41432,31.33171 209.11246,34.098226 z M 255.08545,2.8528721 C 256.11611,2.8528721 256.98404,3.2325901 257.68923,3.992026 C 258.44866,4.6972148 258.82838,5.565141 258.82838,6.5958045 C 258.82838,7.6264681 258.44866,8.5215159 257.68923,9.2809518 C 256.98404,10.040388 256.11611,10.420106 255.08545,10.420106 C 254.0548,10.420106 253.15974,10.040388 252.4003,9.2809518 C 251.64087,8.5215159 251.26115,7.6264681 251.26115,6.5958045 C 251.26115,5.565141 251.64087,4.6972148 252.4003,3.992026 C 253.15974,3.2325901 254.0548,2.8528721 255.08545,2.8528721 z M 256.30598,45.57113 L 257.93332,46.384809 C 254.29889,54.087658 250.33896,57.939081 246.0536,57.939081 C 244.53473,57.939081 243.28707,57.396629 242.31067,56.311719 C 241.33423,55.172565 240.84605,53.735062 240.84605,51.999209 C 240.84605,50.805812 241.00876,49.69378 241.33423,48.663116 C 241.6597,47.632453 242.55476,45.327024 244.01938,41.746829 L 247.11138,34.342329 C 248.95571,29.948451 249.8779,26.992076 249.8779,25.473204 C 249.8779,24.388297 249.41681,23.845842 248.49462,23.845842 C 246.59603,23.845842 243.99226,26.829342 240.6833,32.796335 L 239.05592,31.819919 C 242.90735,24.768015 246.59603,21.242063 250.12199,21.242063 C 251.58662,21.242063 252.78002,21.784519 253.70221,22.869425 C 254.62436,23.954336 255.08545,25.364714 255.08545,27.10057 C 255.08545,29.161893 253.97342,32.986194 251.74937,38.573469 L 248.33191,47.117123 C 246.9215,50.643075 246.21631,52.948504 246.21631,54.033411 C 246.21631,55.009831 246.65028,55.49804 247.51822,55.49804 C 248.54887,55.49804 249.8779,54.575866 251.50524,52.731524 C 253.18686,50.832934 254.78711,48.446136 256.30598,45.57113 z M 283.88992,23.276265 C 282.26258,23.167775 280.36399,24.11707 278.19415,26.12415 C 276.07859,28.076986 274.09863,30.707887 272.25429,34.016858 C 268.56561,40.580549 266.72127,46.08646 266.72127,50.534585 C 266.72127,54.006289 268.07739,55.742142 270.78967,55.742142 C 275.18353,55.742142 279.3333,51.429632 283.23898,42.804614 C 285.89701,36.946107 287.38876,32.091146 287.71422,28.23972 C 287.82272,26.829342 287.52438,25.663063 286.8192,24.740893 C 286.11397,23.81872 285.13757,23.330512 283.88992,23.276265 z M 290.72484,22.299848 L 296.50199,22.299848 C 295.14587,25.934291 293.30149,31.250342 290.96897,38.247998 C 288.47366,45.78811 287.226,50.914303 287.226,53.626571 C 287.226,54.765725 287.65997,55.335302 288.52791,55.335302 C 290.4265,55.335302 293.08452,51.646613 296.50199,44.269238 L 298.29207,45.001553 C 296.01377,49.937882 294.06093,53.328222 292.43359,55.172565 C 290.80622,57.016911 288.96188,57.939081 286.90054,57.939081 C 283.53733,57.939081 281.85574,56.420209 281.85574,53.382469 C 281.85574,52.568786 282.09983,50.914303 282.58805,48.419014 C 278.73662,54.819972 274.61397,58.020449 270.22007,58.020449 C 267.45358,58.020449 265.2024,57.098276 263.46653,55.253933 C 261.73069,53.409591 260.86275,50.995671 260.86275,48.012171 C 260.86275,41.828197 263.30381,35.834079 268.18589,30.029819 C 273.06798,24.171317 278.08569,21.242063 283.23898,21.242063 C 285.95126,21.242063 288.01256,22.733813 289.42297,25.71731 L 290.72484,22.299848 z M 307.43281,4.4802342 L 307.92103,2.6087661 C 311.98943,2.4460288 316.60029,2.1748049 321.75359,1.795087 C 321.31966,3.2597117 320.99415,4.3174969 320.77719,4.9684425 C 320.18051,6.6500478 319.33969,9.1995831 318.25479,12.617045 L 311.66396,34.098226 C 308.51771,44.350607 306.94463,50.643075 306.94463,52.975626 C 306.94463,54.657235 307.43281,55.49804 308.40925,55.49804 C 309.76537,55.49804 311.44699,54.033411 313.45405,51.104162 C 314.48474,49.58529 315.65102,47.57821 316.95288,45.082921 L 318.82435,45.977969 C 317.19698,48.961466 315.97648,51.077036 315.1628,52.32468 C 312.66749,56.067616 309.81962,57.939081 306.61912,57.939081 C 304.99179,57.939081 303.66276,57.342382 302.6321,56.148981 C 301.60145,54.955584 301.08611,53.436712 301.08611,51.59237 C 301.08611,49.314062 302.0083,45.164286 303.85263,39.143046 L 311.01302,15.7904 C 312.58615,10.637086 313.37271,7.7349584 313.37271,7.0840128 C 313.37271,6.1075963 312.99299,5.4566507 312.23355,5.131176 C 311.47412,4.7514581 309.87387,4.5344775 307.43281,4.4802342 z"
       id="use2086"
       sodipodi:nodetypes="cccccccccccccccccccccccccccccccccccccccccccccccccccccccccccccccccccccccccccccccccccccccccccccccccccccccccccccccccccccccccccccccccccccccccccccccccccccccccccccccccccccccccccccccccccccccccccccccccc" />
    <text
       xml:space="preserve"
       style="font-size:6.96932268px;font-style:normal;font-variant:normal;font-weight:normal;font-stretch:normal;text-align:start;line-height:125%;writing-mode:lr-tb;text-anchor:start;opacity:0.5;fill:#000000;fill-opacity:1;stroke:none;font-family:sans-serif"
       x="3.6203015"
       y="-326.81229"
       id="text7519"
       sodipodi:linespacing="125%"
       transform="matrix(0,1,-1,0,0,0)"><tspan
         sodipodi:role="line"
         id="tspan7521"
         x="3.6203015"
         y="-326.81229"
         style="letter-spacing:0.29056421">使用 <tspan
   style="font-weight:bold"
   id="tspan7523">Ctrl+↓</tspan> 向下捲動頁面</tspan></text>
    <path
       transform="matrix(0.614962,4.549602e-2,6.191898e-2,-0.451855,112.95622,172.17069)"
       style="opacity:0.5;fill:#000000;fill-opacity:1;fill-rule:evenodd;stroke:none;stroke-width:4.32172871;marker:none;visibility:visible;display:inline;overflow:visible"
       d="m 338.52736,197.82364 -13.1081,-1.27087 7.65466,-10.71652 z"
       id="path7527" />
    <path
       style="font-size:14px;font-style:italic;font-variant:normal;font-weight:bold;font-stretch:normal;writing-mode:tb-rl;fill:#ffffff;fill-opacity:1;stroke:#ffffff;stroke-width:0.4;stroke-linecap:butt;stroke-linejoin:miter;stroke-miterlimit:4;stroke-dasharray:none;stroke-opacity:1;font-family:'cwTeX 明體';-inkscape-font-specification:'cwTeX 明體 Bold Italic'"
       d="M 147.726,15.782183 C 147.92199,15.800859 148.12732,15.908193 148.342,16.104183 C 148.55665,16.300192 148.64999,16.468192 148.622,16.608183 C 148.60332,16.701525 148.50065,16.748192 148.314,16.748183 C 148.27665,16.748192 148.21132,16.743525 148.118,16.734183 C 148.02465,16.715525 147.94999,16.706192 147.894,16.706183 C 147.83799,16.706192 147.79599,16.710858 147.768,16.720183 C 147.77732,16.720192 147.65132,16.762192 147.39,16.846183 C 147.12865,16.930192 146.80665,17.028191 146.424,17.140183 C 146.04132,17.242858 145.56532,17.359524 144.996,17.490183 C 144.43599,17.620858 143.89466,17.723524 143.372,17.798183 L 143.274,17.910183 L 143.05,18.862183 L 143.078,19.156183 C 143.11533,19.296189 143.28333,19.394189 143.582,19.450183 C 143.88066,19.506189 144.34732,19.534189 144.982,19.534183 L 145.206,19.534183 C 145.70066,19.534189 146.06466,19.529522 146.298,19.520183 C 146.54066,19.501522 146.69932,19.487522 146.774,19.478183 C 146.85799,19.459522 146.97932,19.426856 147.138,19.380183 C 147.25932,19.342856 147.34799,19.296189 147.404,19.240183 L 147.586,19.030183 C 147.66999,18.936856 147.74932,18.787523 147.824,18.582183 C 147.90799,18.376857 147.97799,18.194857 148.034,18.036183 C 148.08999,17.868191 148.15532,17.737524 148.23,17.644183 C 148.30465,17.550858 148.38399,17.536858 148.468,17.602183 C 148.50532,17.630191 148.48665,17.844857 148.412,18.246183 C 148.29999,18.787523 148.24865,19.090856 148.258,19.156183 L 148.524,19.450183 C 148.55199,19.506189 148.56132,19.562189 148.552,19.618183 C 148.46799,20.028855 147.47399,20.234188 145.57,20.234183 C 145.21532,20.234188 144.90266,20.234188 144.632,20.234183 C 144.36132,20.224855 144.10932,20.210855 143.876,20.192183 C 143.64266,20.173522 143.44666,20.159522 143.288,20.150183 C 143.12933,20.131522 142.98933,20.103522 142.868,20.066183 C 142.74666,20.019522 142.64399,19.986855 142.56,19.968183 C 142.48533,19.940189 142.42466,19.888855 142.378,19.814183 C 142.34066,19.739522 142.31266,19.683522 142.294,19.646183 C 142.27533,19.599522 142.26599,19.524856 142.266,19.422183 C 142.27533,19.310189 142.28466,19.221523 142.294,19.156183 C 142.31266,19.090856 142.33599,18.988189 142.364,18.848183 C 142.40133,18.689523 142.45266,18.42819 142.518,18.064183 C 142.59266,17.700191 142.65333,17.401524 142.7,17.168183 C 142.86799,16.318859 142.98466,15.651526 143.05,15.166183 C 143.10599,15.110193 143.18533,15.082193 143.288,15.082183 C 143.35332,15.082193 143.43266,15.096193 143.526,15.124183 C 143.62866,15.14286 143.70332,15.152193 143.75,15.152183 L 144.296,15.306183 C 144.31466,15.315526 144.32866,15.320193 144.338,15.320183 C 144.36599,15.376193 144.37532,15.432193 144.366,15.488183 C 144.35666,15.56286 144.23999,15.660859 144.016,15.782183 C 143.80132,15.894193 143.67999,15.973526 143.652,16.020183 L 143.372,17.294183 C 143.37199,17.322191 143.39066,17.345524 143.428,17.364183 L 145.57,16.762183 C 146.40999,16.491525 147.12865,16.164859 147.726,15.782183 M 147.656,21.732183 C 147.63732,21.806853 147.53932,21.90952 147.362,22.040183 C 147.19399,22.16152 147.10065,22.254853 147.082,22.320183 C 147.05399,22.404186 147.01665,22.562853 146.97,22.796183 C 146.92332,23.029519 146.86732,23.337518 146.802,23.720183 L 146.76,23.888183 C 146.48932,25.33485 146.27932,26.426849 146.13,27.164183 C 146.09266,27.360181 145.92932,27.458181 145.64,27.458183 L 145.458,27.444183 C 145.40199,27.378848 145.39266,27.224848 145.43,26.982183 C 145.45799,26.832848 145.44866,26.720848 145.402,26.646183 C 143.41399,26.646182 142.27533,26.650848 141.986,26.660183 L 141.594,26.688183 C 141.53799,26.734848 141.47733,26.879515 141.412,27.122183 L 141.314,27.346183 C 141.22999,27.448848 141.09466,27.490848 140.908,27.472183 C 140.72133,27.462848 140.62799,27.411514 140.628,27.318183 C 140.62799,27.280848 140.65599,27.131515 140.712,26.870183 C 140.81466,26.356849 141.00133,25.507516 141.272,24.322183 L 141.328,24.070183 L 141.79,21.564183 L 141.916,21.102183 C 141.93466,21.008854 141.97666,20.952854 142.042,20.934183 C 142.09799,20.943521 142.20999,21.013521 142.378,21.144183 C 142.55533,21.265521 142.65333,21.330854 142.672,21.340183 C 143.03599,21.358854 143.50266,21.368187 144.072,21.368183 C 144.44532,21.368187 144.86066,21.36352 145.318,21.354183 L 145.486,21.354183 L 146.382,21.368183 C 146.40999,21.358854 146.43332,21.354187 146.452,21.354183 C 146.48932,21.344854 146.59666,21.284187 146.774,21.172183 C 146.96065,21.050854 147.09132,21.013521 147.166,21.060183 C 147.35265,21.153521 147.48332,21.270187 147.558,21.410183 C 147.64199,21.540854 147.67465,21.648187 147.656,21.732183 M 138.36,18.526183 C 138.20133,18.52619 137.99133,18.535523 137.73,18.554183 C 137.46866,18.563523 137.33333,18.56819 137.324,18.568183 C 137.156,18.381523 137.10933,18.157524 137.184,17.896183 C 137.19333,17.886857 137.38933,17.905524 137.772,17.952183 C 138.164,17.989524 138.49533,18.00819 138.766,18.008183 C 139.06466,18.00819 139.228,17.970857 139.256,17.896183 C 139.312,17.756191 139.382,17.494858 139.466,17.112183 C 139.522,16.813525 139.58266,16.435525 139.648,15.978183 C 139.72266,15.511526 139.76466,15.26886 139.774,15.250183 C 139.79266,15.119527 139.844,15.04486 139.928,15.026183 C 140.72133,15.166193 141.09933,15.334193 141.062,15.530183 C 141.04333,15.60486 140.94066,15.684193 140.754,15.768183 C 140.57666,15.852193 140.46466,15.931526 140.418,16.006183 C 140.36199,16.108859 140.28266,16.407525 140.18,16.902183 C 140.13333,17.154191 140.07733,17.466858 140.012,17.840183 C 139.984,17.970857 140.06333,18.03619 140.25,18.036183 C 140.46466,18.03619 140.64199,17.99419 140.782,17.910183 L 141.16,17.518183 C 141.38399,17.378191 141.63133,17.560191 141.902,18.064183 L 141.986,18.218183 C 141.99533,18.24619 141.99533,18.27419 141.986,18.302183 C 141.96733,18.41419 141.85533,18.48419 141.65,18.512183 L 140.978,18.540183 L 140.138,18.554183 C 139.98866,18.572857 139.89066,18.61019 139.844,18.666183 L 139.298,21.074183 L 139.298,21.102183 L 139.312,21.116183 L 141.272,20.332183 C 141.33733,20.322855 141.38866,20.392855 141.426,20.542183 C 141.37933,20.654188 141.00599,20.878188 140.306,21.214183 C 139.606,21.550187 139.22333,21.76952 139.158,21.872183 C 139.13933,21.96552 139.074,22.28752 138.962,22.838183 C 138.85933,23.379518 138.70533,24.149518 138.5,25.148183 L 138.472,25.316183 C 138.43466,25.512183 138.39733,25.684849 138.36,25.834183 C 138.34133,25.955516 138.318,26.067516 138.29,26.170183 C 138.27133,26.272849 138.262,26.333515 138.262,26.352183 C 138.206,26.622849 138.122,26.828182 138.01,26.968183 C 137.898,27.108181 137.72066,27.243515 137.478,27.374183 C 137.29133,27.476848 137.14666,27.528181 137.044,27.528183 C 136.96933,27.528181 136.89466,27.448848 136.82,27.290183 C 136.75466,27.131515 136.69866,27.042848 136.652,27.024183 L 135.728,26.744183 C 135.66267,26.744182 135.644,26.688182 135.672,26.576183 C 135.69067,26.454849 135.83533,26.384849 136.106,26.366183 L 137.352,26.394183 C 137.436,26.394182 137.53866,26.146849 137.66,25.652183 C 137.79066,25.148183 138.024,24.074851 138.36,22.432183 L 138.416,22.152183 L 138.374,22.138183 C 138.36466,22.14752 138.192,22.226853 137.856,22.376183 C 137.52933,22.525519 137.31,22.651519 137.198,22.754183 L 137.072,23.160183 C 137.016,23.253519 136.95533,23.300185 136.89,23.300183 C 136.75933,23.300185 136.63333,23.146185 136.512,22.838183 C 136.39067,22.520853 136.344,22.292186 136.372,22.152183 C 136.41867,22.114853 136.74533,21.998186 137.352,21.802183 C 137.968,21.596854 138.32266,21.470854 138.416,21.424183 C 138.50933,21.386854 138.57466,21.284187 138.612,21.116183 C 138.696,20.836188 138.78933,20.444188 138.892,19.940183 C 138.93866,19.697522 138.98533,19.422189 139.032,19.114183 C 139.088,18.852856 139.11133,18.703523 139.102,18.666183 C 139.102,18.572857 138.85466,18.52619 138.36,18.526183 M 146.438,22.026183 C 146.43799,21.942187 146.37266,21.890853 146.242,21.872183 C 146.11132,21.85352 145.79399,21.844187 145.29,21.844183 C 144.74866,21.844187 144.00666,21.85352 143.064,21.872183 L 142.658,21.872183 C 142.61133,21.872187 142.56466,21.89552 142.518,21.942183 C 142.41533,22.28752 142.29399,22.800852 142.154,23.482183 L 142.224,23.580183 C 144.17466,23.608185 145.42999,23.617518 145.99,23.608183 C 146.05532,23.589518 146.10199,23.547518 146.13,23.482183 L 146.438,22.026183 M 141.65,25.988183 C 141.73399,26.090849 142.25199,26.142182 143.204,26.142183 C 144.26799,26.142182 144.92599,26.128182 145.178,26.100183 C 145.42999,26.081516 145.57932,26.030182 145.626,25.946183 L 145.92,24.532183 L 145.962,24.294183 C 145.98066,24.238184 145.94799,24.191518 145.864,24.154183 L 142.196,24.154183 C 142.10266,24.154184 142.03733,24.186851 142,24.252183 L 141.65,25.988183 M 153.89891,22.012183 C 153.7589,22.002853 153.67957,21.956187 153.66091,21.872183 C 153.64223,21.788187 153.65157,21.64352 153.68891,21.438183 C 153.73557,21.214187 153.8149,20.892188 153.92691,20.472183 L 154.45891,17.714183 C 154.47757,17.630191 154.52423,17.569524 154.59891,17.532183 C 154.66423,17.541524 154.72957,17.578858 154.79491,17.644183 C 154.86957,17.700191 154.97223,17.756191 155.10291,17.812183 C 155.23357,17.858857 155.41557,17.882191 155.64891,17.882183 C 155.80756,17.882191 155.98023,17.872857 156.16691,17.854183 L 156.48891,17.826183 C 156.58223,17.714191 156.64756,17.564858 156.68491,17.378183 C 156.70356,17.284858 156.71756,17.205525 156.72691,17.140183 C 156.6989,17.130858 156.66623,17.116858 156.62891,17.098183 C 156.56356,17.079525 156.42356,17.070191 156.20891,17.070183 C 155.9009,17.070191 155.42957,17.088858 154.79491,17.126183 L 153.92691,17.140183 C 153.7589,17.140191 153.6609,17.065525 153.63291,16.916183 C 153.6049,16.757525 153.6189,16.650192 153.67491,16.594183 C 153.7309,16.584859 153.95023,16.594192 154.33291,16.622183 C 154.71557,16.650192 155.0609,16.664192 155.36891,16.664183 C 155.65823,16.664192 155.84023,16.636192 155.91491,16.580183 C 155.9149,16.449525 155.87756,16.318859 155.80291,16.188183 C 155.73757,16.048192 155.65823,15.922193 155.56491,15.810183 C 155.4809,15.698193 155.43423,15.628193 155.42491,15.600183 C 155.41557,15.469526 155.47623,15.390193 155.60691,15.362183 C 155.8869,15.455526 156.10623,15.56286 156.26491,15.684183 C 156.42356,15.805526 156.5169,15.912859 156.54491,16.006183 C 156.5729,16.099526 156.59156,16.192859 156.60091,16.286183 C 156.61023,16.379525 156.60556,16.454192 156.58691,16.510183 C 156.56823,16.612859 156.55423,16.668858 156.54491,16.678183 L 157.97291,16.664183 C 158.01956,16.654858 158.06156,16.650192 158.09891,16.650183 C 158.2109,16.594192 158.39756,16.374859 158.65891,15.992183 C 158.92023,15.600193 159.06023,15.399526 159.07891,15.390183 C 159.11623,15.343526 159.16756,15.320193 159.23291,15.320183 C 159.33556,15.320193 159.47089,15.376193 159.63891,15.488183 C 159.81623,15.59086 159.92356,15.674859 159.96091,15.740183 C 159.95156,15.870859 159.84889,15.954859 159.65291,15.992183 L 159.38691,16.048183 C 159.11623,16.206859 158.89223,16.407525 158.71491,16.650183 C 158.76156,16.687525 159.0229,16.706192 159.49891,16.706183 C 159.91889,16.706192 160.17089,16.696858 160.25491,16.678183 C 160.33889,16.659525 160.46489,16.566192 160.63291,16.398183 C 160.76356,16.258192 160.87556,16.188192 160.96891,16.188183 C 160.99689,16.188192 161.02023,16.192859 161.03891,16.202183 C 161.08556,16.239526 161.13689,16.290859 161.19291,16.356183 C 161.25823,16.421525 161.32356,16.496192 161.38891,16.580183 C 161.46356,16.664192 161.51489,16.743525 161.54291,16.818183 C 161.58023,16.892858 161.58489,16.962858 161.55691,17.028183 C 161.52889,17.084191 161.46356,17.121525 161.36091,17.140183 C 161.26756,17.149525 161.13223,17.154191 160.95491,17.154183 C 160.90823,17.154191 160.78689,17.154191 160.59091,17.154183 C 160.39489,17.144858 160.04489,17.140191 159.54091,17.140183 C 159.04623,17.130858 158.40223,17.126191 157.60891,17.126183 C 157.48756,17.182191 157.33823,17.322191 157.16091,17.546183 L 157.02091,17.756183 C 157.03023,17.830857 157.0489,17.868191 157.07691,17.868183 C 157.29156,17.896191 157.56223,17.910191 157.88891,17.910183 C 158.46756,17.910191 158.84556,17.896191 159.02291,17.868183 C 159.20956,17.830857 159.36823,17.760857 159.49891,17.658183 C 159.56423,17.620858 159.62489,17.602191 159.68091,17.602183 C 159.79289,17.602191 159.90023,17.672191 160.00291,17.812183 C 160.11489,17.942857 160.16156,18.073524 160.14291,18.204183 L 160.12891,18.288183 C 159.90489,18.465523 159.76956,18.68019 159.72291,18.932183 C 159.62956,19.389522 159.55023,19.870189 159.48491,20.374183 C 159.42889,20.878188 159.38689,21.181521 159.35891,21.284183 C 159.31223,21.536187 159.25156,21.708853 159.17691,21.802183 C 159.10223,21.89552 158.9809,21.946853 158.81291,21.956183 L 158.60291,21.914183 L 158.58891,21.914183 C 158.5049,21.736853 158.4069,21.648187 158.29491,21.648183 L 155.46691,21.634183 C 154.91623,21.634187 154.60357,21.638854 154.52891,21.648183 C 154.45423,21.65752 154.35623,21.722853 154.23491,21.844183 C 154.13223,21.956187 154.02023,22.012186 153.89891,22.012183 M 152.90491,16.874183 C 152.7649,16.603525 152.51757,16.300192 152.16291,15.964183 C 151.80824,15.628193 151.5749,15.441526 151.46291,15.404183 C 151.45357,15.320193 151.4769,15.250193 151.53291,15.194183 C 151.5889,15.12886 151.66357,15.096193 151.75691,15.096183 C 151.91557,15.096193 152.12557,15.161527 152.38691,15.292183 C 152.65757,15.413526 152.90023,15.600193 153.11491,15.852183 C 153.3389,16.094859 153.41823,16.342192 153.35291,16.594183 L 153.25491,16.804183 L 153.15691,16.888183 L 152.98891,16.902183 C 152.9609,16.902192 152.9329,16.892858 152.90491,16.874183 M 151.15491,17.112183 C 151.2949,17.112191 151.50024,17.163525 151.77091,17.266183 C 152.04157,17.368858 152.2889,17.518191 152.51291,17.714183 C 152.74623,17.910191 152.84423,18.110857 152.80691,18.316183 C 152.7509,18.56819 152.64823,18.69419 152.49891,18.694183 C 152.34957,18.69419 152.16757,18.558857 151.95291,18.288183 L 151.85491,18.162183 C 151.78957,18.087524 151.5189,17.896191 151.04291,17.588183 L 150.93091,17.490183 C 150.88424,17.434191 150.8749,17.359524 150.90291,17.266183 C 150.91224,17.247525 150.92624,17.224191 150.94491,17.196183 C 150.99157,17.140191 151.06157,17.112191 151.15491,17.112183 M 156.22291,24.140183 C 156.49356,24.140184 156.6709,24.126184 156.75491,24.098183 C 156.8389,24.070184 156.89956,24.004851 156.93691,23.902183 C 156.94623,23.846185 156.9789,23.589518 157.03491,23.132183 L 156.96491,23.076183 L 154.52891,23.020183 C 153.2129,22.926852 152.32157,22.497519 151.85491,21.732183 L 151.75691,21.732183 L 150.63691,22.586183 C 150.43157,22.754186 150.29624,22.884852 150.23091,22.978183 L 150.04891,23.300183 C 150.0209,23.328185 149.9929,23.351518 149.96491,23.370183 C 149.8249,23.398185 149.6989,23.295519 149.58691,23.062183 C 149.48424,22.819519 149.4469,22.632853 149.47491,22.502183 C 149.48424,22.464853 149.49357,22.436853 149.50291,22.418183 L 150.37091,22.082183 C 150.9589,21.83952 151.3649,21.596854 151.58891,21.354183 C 151.6729,21.158187 151.73824,20.943521 151.78491,20.710183 C 151.83157,20.467521 151.8549,20.276188 151.85491,20.136183 C 151.84557,20.052188 151.6869,20.010188 151.37891,20.010183 C 151.2949,20.010188 151.17357,20.019522 151.01491,20.038183 C 150.85624,20.056855 150.72557,20.066188 150.62291,20.066183 C 150.52024,20.066188 150.4129,20.061522 150.30091,20.052183 C 150.1889,20.033522 150.11424,19.986855 150.07691,19.912183 C 150.03957,19.837522 150.03024,19.734855 150.04891,19.604183 C 150.0769,19.501522 150.1469,19.440856 150.25891,19.422183 C 150.6509,19.496856 151.0429,19.534189 151.43491,19.534183 C 151.4909,19.534189 151.5469,19.534189 151.60291,19.534183 C 151.6589,19.534189 151.72424,19.534189 151.79891,19.534183 C 151.8549,19.506189 151.91557,19.459522 151.98091,19.394183 C 152.05557,19.328856 152.11157,19.282189 152.14891,19.254183 C 152.18624,19.216856 152.24224,19.188856 152.31691,19.170183 C 152.39157,19.142189 152.46157,19.151523 152.52691,19.198183 C 152.76023,19.384856 152.9049,19.543522 152.96091,19.674183 C 153.0169,19.804855 153.00757,19.898189 152.93291,19.954183 C 152.86757,20.010188 152.78357,20.080188 152.68091,20.164183 C 152.57823,20.238855 152.5129,20.308855 152.48491,20.374183 L 152.30291,21.200183 C 152.25624,21.526854 152.3309,21.732187 152.52691,21.816183 C 153.18023,22.180186 153.91757,22.376186 154.73891,22.404183 L 154.83691,22.404183 C 155.1169,22.413519 155.40157,22.418186 155.69091,22.418183 C 156.7269,22.418186 157.7209,22.385519 158.67291,22.320183 L 160.45091,22.138183 L 160.50691,22.138183 C 160.54423,22.11952 160.58156,22.14752 160.61891,22.222183 C 160.60023,22.324853 160.50223,22.450853 160.32491,22.600183 C 160.15689,22.740186 160.05423,22.842852 160.01691,22.908183 C 159.94223,22.945519 159.60156,22.982852 158.99491,23.020183 C 158.38823,23.057519 157.9589,23.076185 157.70691,23.076183 C 157.6509,23.076185 157.61356,23.104185 157.59491,23.160183 C 157.5949,23.169519 157.6509,23.188185 157.76291,23.216183 C 157.88423,23.244185 157.9729,23.290852 158.02891,23.356183 C 158.09423,23.412185 158.08956,23.496185 158.01491,23.608183 C 157.8189,23.729518 157.71623,23.790185 157.70691,23.790183 C 157.63223,23.855518 157.5949,23.930185 157.59491,24.014183 L 157.69291,24.112183 C 157.84223,24.121518 157.98223,24.126184 158.11291,24.126183 C 158.38356,24.126184 158.59823,24.098184 158.75691,24.042183 C 158.9249,23.976851 159.02756,23.911518 159.06491,23.846183 C 159.11156,23.771518 159.16756,23.706185 159.23291,23.650183 C 159.29823,23.584852 159.37289,23.552185 159.45691,23.552183 C 159.55956,23.552185 159.70423,23.664185 159.89091,23.888183 C 160.08689,24.112184 160.17556,24.284851 160.15691,24.406183 C 160.13823,24.490184 160.07756,24.541517 159.97491,24.560183 C 159.88156,24.578851 159.65756,24.588184 159.30291,24.588183 C 159.06956,24.588184 158.78023,24.583517 158.43491,24.574183 C 158.0429,24.574184 157.74423,24.588184 157.53891,24.616183 L 157.44091,24.714183 C 157.3569,25.022183 157.27756,25.358183 157.20291,25.722183 L 157.07691,26.520183 C 156.9929,26.800182 156.8249,27.005515 156.57291,27.136183 C 156.33023,27.276181 156.1249,27.346181 155.95691,27.346183 C 155.89156,27.346181 155.8309,27.336848 155.77491,27.318183 C 155.6349,27.000848 155.40157,26.832848 155.07491,26.814183 L 154.51491,26.758183 L 154.34691,26.688183 C 154.28157,26.669515 154.2489,26.627515 154.24891,26.562183 C 154.25823,26.496849 154.28623,26.450182 154.33291,26.422183 C 154.37023,26.384849 154.5849,26.366182 154.97691,26.366183 C 155.3129,26.366182 155.60223,26.370849 155.84491,26.380183 C 156.08756,26.398849 156.2509,26.403515 156.33491,26.394183 L 156.46091,26.254183 C 156.55423,25.964849 156.6289,25.680183 156.68491,25.400183 C 156.75023,25.073517 156.77823,24.854184 156.76891,24.742183 C 156.7689,24.620851 156.73156,24.560184 156.65691,24.560183 C 156.58223,24.550851 156.43756,24.546184 156.22291,24.546183 C 156.01756,24.546184 155.73757,24.550851 155.38291,24.560183 L 155.21491,24.560183 L 152.24691,24.602183 L 149.41891,24.616183 L 149.30691,24.616183 C 149.2229,24.616184 149.15757,24.564851 149.11091,24.462183 C 149.07357,24.350184 149.06891,24.238184 149.09691,24.126183 C 149.11557,24.014184 149.16224,23.958185 149.23691,23.958183 C 149.3209,23.958185 149.5169,23.986184 149.82491,24.042183 C 150.14224,24.088851 150.3429,24.112184 150.42691,24.112183 C 150.72557,24.130851 151.6169,24.135518 153.10091,24.126183 L 155.66291,24.126183 C 155.8869,24.135518 156.07356,24.140184 156.22291,24.140183 M 152.03691,24.728183 C 152.33557,24.756184 152.63423,24.933517 152.93291,25.260183 C 153.23157,25.58685 153.3529,25.880849 153.29691,26.142183 C 153.27823,26.235516 153.2269,26.324182 153.14291,26.408183 L 152.96091,26.548183 L 152.86291,26.590183 C 152.7229,26.590182 152.61557,26.524849 152.54091,26.394183 C 152.46623,26.263516 152.4149,26.114182 152.38691,25.946183 C 152.3589,25.787516 152.33557,25.694183 152.31691,25.666183 L 151.88291,25.022183 C 151.87357,25.003517 151.87357,24.989517 151.88291,24.980183 C 151.87357,24.952184 151.87357,24.92885 151.88291,24.910183 C 151.89224,24.84485 151.94357,24.784184 152.03691,24.728183 M 154.97691,18.568183 C 154.9769,18.59619 154.97223,18.633523 154.96291,18.680183 C 154.9349,18.782856 154.96757,18.843523 155.06091,18.862183 C 155.16357,18.880856 155.38757,18.89019 155.73291,18.890183 C 157.43156,18.89019 158.4909,18.90419 158.91091,18.932183 C 159.04156,18.87619 159.1209,18.77819 159.14891,18.638183 C 159.18623,18.479523 159.16289,18.37219 159.07891,18.316183 C 158.4909,18.297524 157.18423,18.28819 155.15891,18.288183 C 155.06557,18.325523 155.0049,18.418857 154.97691,18.568183 M 155.06091,19.352183 C 154.96757,19.370856 154.89757,19.398856 154.85091,19.436183 C 154.81357,19.473522 154.7809,19.557522 154.75291,19.688183 C 154.7249,19.846855 154.7389,19.958855 154.79491,20.024183 C 155.8309,20.061522 156.84356,20.080188 157.83291,20.080183 C 157.96356,20.080188 158.07556,20.080188 158.16891,20.080183 C 158.27156,20.070855 158.36023,20.070855 158.43491,20.080183 C 158.50956,20.080188 158.5749,20.075522 158.63091,20.066183 C 158.6869,20.056855 158.73356,20.047522 158.77091,20.038183 C 158.80823,20.019522 158.83623,20.000855 158.85491,19.982183 C 158.8829,19.954189 158.90156,19.926189 158.91091,19.898183 C 158.92023,19.870189 158.92956,19.832855 158.93891,19.786183 C 158.97623,19.599522 158.94823,19.478189 158.85491,19.422183 C 157.75356,19.356856 156.84356,19.324189 156.12491,19.324183 C 155.7609,19.324189 155.44823,19.333522 155.18691,19.352183 L 155.06091,19.352183 M 158.65891,21.088183 C 158.7429,20.780188 158.75223,20.593521 158.68691,20.528183 C 158.2669,20.481521 157.63223,20.458188 156.78291,20.458183 C 156.4189,20.458188 156.01756,20.462855 155.57891,20.472183 L 154.68291,20.528183 L 154.65491,20.528183 C 154.58957,20.593521 154.5429,20.686854 154.51491,20.808183 C 154.50557,20.864188 154.5009,20.924854 154.50091,20.990183 L 154.52891,21.144183 C 154.60357,21.190854 154.91623,21.214187 155.46691,21.214183 C 155.95223,21.214187 156.6149,21.200187 157.45491,21.172183 L 157.88891,21.172183 L 158.40691,21.186183 C 158.50023,21.176854 158.58423,21.144187 158.65891,21.088183 M 173.52581,19.324183 C 173.4978,19.482856 173.31113,19.562189 172.96581,19.562183 C 172.07913,19.552856 171.35114,19.548189 170.78181,19.548183 C 170.2498,19.548189 169.86714,19.552856 169.63381,19.562183 C 169.40047,19.562189 169.20914,19.571522 169.05981,19.590183 C 168.91047,19.608856 168.82647,19.627522 168.80781,19.646183 C 168.78914,19.664855 168.77514,19.702189 168.76581,19.758183 C 168.5418,20.906188 168.4158,21.61552 168.38781,21.886183 L 168.47181,21.970183 L 171.15981,21.970183 C 171.4678,21.970187 171.77113,21.96552 172.06981,21.956183 C 172.07913,21.956187 172.20513,21.83952 172.44781,21.606183 C 172.6998,21.372854 172.87247,21.256187 172.96581,21.256183 C 173.0498,21.256187 173.1758,21.368187 173.34381,21.592183 C 173.52113,21.806853 173.67513,22.030853 173.80581,22.264183 C 173.7778,22.357519 173.71713,22.422853 173.62381,22.460183 C 173.5398,22.488186 173.3858,22.502186 173.16181,22.502183 C 173.15247,22.502186 173.07313,22.502186 172.92381,22.502183 C 172.77447,22.492853 172.5598,22.488186 172.27981,22.488183 L 169.18581,22.488183 L 168.40181,22.502183 C 168.38314,22.502186 168.36447,22.506853 168.34581,22.516183 C 168.32714,22.516186 168.2898,22.553519 168.23381,22.628183 L 167.61781,25.946183 C 167.56181,26.188849 167.51047,26.361515 167.46381,26.464183 C 167.42647,26.576182 167.35181,26.706848 167.23981,26.856183 C 167.12781,27.014848 166.97381,27.136181 166.77781,27.220183 C 166.59114,27.313514 166.33914,27.392848 166.02181,27.458183 C 165.97514,27.439514 165.91914,27.346181 165.85381,27.178183 C 165.79781,27.010181 165.71847,26.907515 165.61581,26.870183 L 164.21581,26.590183 C 164.14114,26.534182 164.12248,26.459515 164.15981,26.366183 C 164.17848,26.254182 164.25781,26.179516 164.39781,26.142183 C 165.00447,26.244849 165.51781,26.296182 165.93781,26.296183 C 166.10581,26.296182 166.25514,26.286849 166.38581,26.268183 C 166.56314,26.268182 166.68447,26.193516 166.74981,26.044183 C 166.95514,25.157517 167.12314,24.396851 167.25381,23.762183 C 167.36581,23.192852 167.42181,22.842852 167.42181,22.712183 C 167.43114,22.581519 167.37981,22.516186 167.26781,22.516183 L 164.27181,22.502183 C 163.52514,22.530186 162.86248,22.590853 162.28381,22.684183 C 162.22781,22.628186 162.17648,22.516186 162.12981,22.348183 C 162.08314,22.180186 162.06448,22.058853 162.07381,21.984183 C 162.09248,21.918853 162.12981,21.88152 162.18581,21.872183 C 162.26048,21.872187 162.72714,21.904853 163.58581,21.970183 C 163.61381,21.970187 163.77248,21.97952 164.06181,21.998183 C 164.36048,22.00752 164.79914,22.012186 165.37781,22.012183 C 165.72314,22.012186 166.07781,22.00752 166.44181,21.998183 L 167.47781,21.970183 C 167.55247,21.904853 167.58981,21.862853 167.58981,21.844183 L 168.02381,19.730183 C 168.02381,19.627522 167.97714,19.576189 167.88381,19.576183 L 164.38381,19.604183 L 163.76781,19.702183 L 163.62781,19.646183 C 163.59048,19.599522 163.55781,19.492189 163.52981,19.324183 C 163.50181,19.156189 163.50181,19.030189 163.52981,18.946183 L 163.62781,18.890183 C 164.18781,19.002189 164.97181,19.058189 165.97981,19.058183 C 166.71714,19.058189 167.41247,19.039523 168.06581,19.002183 C 168.15914,18.927523 168.29914,18.41419 168.48581,17.462183 C 168.5418,17.191525 168.5838,17.009525 168.61181,16.916183 L 168.55581,16.846183 C 167.05314,17.088858 165.82581,17.210191 164.87381,17.210183 C 164.71514,17.210191 164.58448,17.210191 164.48181,17.210183 C 164.37914,17.200858 164.30448,17.196191 164.25781,17.196183 C 164.22048,17.186858 164.19714,17.182191 164.18781,17.182183 C 164.02914,17.154191 163.96381,17.056191 163.99181,16.888183 C 164.01981,16.785525 164.07114,16.729525 164.14581,16.720183 L 164.92981,16.692183 C 167.27247,16.570859 169.64314,16.150859 172.04181,15.432183 L 172.72781,15.096183 C 172.76513,15.08686 172.80247,15.082193 172.83981,15.082183 C 172.93313,15.082193 173.0778,15.152193 173.27381,15.292183 C 173.47913,15.42286 173.62847,15.558193 173.72181,15.698183 C 173.7218,15.875526 173.6098,15.987526 173.38581,16.034183 C 173.17113,16.071526 173.01247,16.076192 172.90981,16.048183 L 172.76981,16.048183 L 169.42381,16.776183 C 169.33047,16.850858 169.19047,17.382858 169.00381,18.372183 L 168.93381,18.904183 C 168.9338,18.997523 168.99447,19.044189 169.11581,19.044183 L 171.43981,19.086183 C 171.70113,19.076856 171.89247,19.030189 172.01381,18.946183 C 172.13513,18.86219 172.2378,18.754856 172.32181,18.624183 C 172.41513,18.493523 172.53647,18.390857 172.68581,18.316183 C 172.81647,18.390857 172.9938,18.544857 173.21781,18.778183 C 173.45113,19.011523 173.5538,19.193523 173.52581,19.324183 M 185.52272,20.332183 C 185.56937,20.313521 185.69071,20.215522 185.88672,20.038183 C 186.08271,19.860855 186.22271,19.772189 186.30672,19.772183 C 186.39071,19.772189 186.53071,19.893522 186.72672,20.136183 C 186.93204,20.378855 187.02071,20.556188 186.99272,20.668183 C 186.98337,20.733521 186.93671,20.780188 186.85272,20.808183 L 186.47472,20.864183 L 185.42472,20.892183 C 185.35004,20.929521 185.30804,20.971521 185.29872,21.018183 C 185.26137,21.139521 185.17271,21.53152 185.03272,22.194183 L 184.40272,25.652183 L 184.24872,26.254183 C 184.21137,26.412849 184.12737,26.548182 183.99672,26.660183 C 183.86604,26.781515 183.72604,26.865515 183.57672,26.912183 C 183.42738,26.958848 183.30604,26.991515 183.21272,27.010183 C 183.11938,27.038181 183.06338,27.052181 183.04472,27.052183 C 182.98871,27.052181 182.94204,27.038181 182.90472,27.010183 C 182.82071,26.702182 182.62471,26.520182 182.31672,26.464183 L 181.77072,26.394183 C 181.70538,26.328849 181.70071,26.230849 181.75672,26.100183 C 181.78471,26.062849 181.94804,26.044182 182.24672,26.044183 C 182.36804,26.044182 182.52671,26.048849 182.72272,26.058183 C 182.91871,26.067516 183.04004,26.072182 183.08672,26.072183 C 183.31071,26.072182 183.46471,26.034849 183.54872,25.960183 C 183.63271,25.885516 183.69804,25.731516 183.74472,25.498183 L 184.64072,21.060183 C 184.65004,21.013521 184.64071,20.976188 184.61272,20.948183 C 184.59404,20.920188 184.53804,20.901521 184.44472,20.892183 C 184.35137,20.873521 184.26737,20.864188 184.19272,20.864183 C 184.12737,20.864188 183.99671,20.864188 183.80072,20.864183 C 183.11004,20.864188 182.74138,20.873521 182.69472,20.892183 C 182.61071,20.892188 182.55004,20.934188 182.51272,21.018183 L 182.06472,22.488183 C 181.40204,24.438851 180.51538,25.932183 179.40472,26.968183 C 179.31138,27.052181 179.22738,27.066181 179.15272,27.010183 C 179.08738,26.963515 179.12005,26.851515 179.25072,26.674183 C 179.38138,26.496849 179.61005,26.165516 179.93672,25.680183 C 180.27271,25.185517 180.57138,24.644184 180.83272,24.056183 C 181.21538,23.178852 181.56538,22.156853 181.88272,20.990183 L 181.79872,20.850183 L 180.42672,20.892183 C 180.30538,20.929521 180.23538,21.008854 180.21672,21.130183 C 180.10471,21.466187 179.97405,22.016853 179.82472,22.782183 C 179.71271,23.323518 179.61938,23.836851 179.54472,24.322183 L 179.41872,25.022183 L 179.19472,26.184183 C 179.13871,26.389515 178.97071,26.590182 178.69072,26.786183 C 178.41071,26.982181 178.15871,27.080181 177.93472,27.080183 C 177.86005,27.080181 177.80405,27.019515 177.76672,26.898183 C 177.72938,26.776848 177.70605,26.711515 177.69672,26.702183 C 177.67805,26.692848 177.49138,26.636849 177.13672,26.534183 C 176.79138,26.431515 176.62805,26.328849 176.64672,26.226183 C 176.64672,26.142182 176.70272,26.072182 176.81472,26.016183 L 177.94872,26.086183 C 178.21005,26.086182 178.38738,26.039516 178.48072,25.946183 C 178.58338,25.862183 178.65805,25.680183 178.70472,25.400183 L 179.34872,22.180183 C 179.42338,21.806853 179.47938,21.526854 179.51672,21.340183 C 179.55405,21.153521 179.56805,21.036854 179.55872,20.990183 C 179.55871,20.934188 179.53538,20.906188 179.48872,20.906183 C 179.36738,20.878188 179.05938,20.864188 178.56472,20.864183 C 178.12605,20.864188 177.84605,20.878188 177.72472,20.906183 C 177.60338,20.924854 177.53805,20.985521 177.52872,21.088183 C 177.20205,22.254853 176.85672,23.258185 176.49272,24.098183 C 176.12872,24.938184 175.67605,25.680183 175.13472,26.324183 C 174.89205,26.641515 174.69605,26.856182 174.54672,26.968183 C 174.49072,27.033515 174.40672,27.033515 174.29472,26.968183 C 174.24805,26.921515 174.26672,26.828182 174.35072,26.688183 C 174.43472,26.557515 174.62605,26.300849 174.92472,25.918183 C 175.62472,25.022183 176.27805,23.365518 176.88472,20.948183 L 176.81472,20.850183 L 175.42872,20.906183 C 175.37272,20.868854 175.33072,20.803521 175.30272,20.710183 C 175.27472,20.607521 175.26538,20.518855 175.27472,20.444183 C 175.29338,20.378855 175.32605,20.336855 175.37272,20.318183 L 176.47872,20.402183 C 176.62805,20.402188 176.77272,20.388188 176.91272,20.360183 C 177.03405,20.229522 177.19738,19.650855 177.40272,18.624183 C 177.64538,17.438858 177.81805,16.444859 177.92072,15.642183 C 177.95805,15.586193 178.00938,15.558193 178.07472,15.558183 C 178.14938,15.558193 178.21471,15.57686 178.27072,15.614183 C 178.32671,15.642193 178.37338,15.679526 178.41072,15.726183 C 178.45738,15.763526 178.56005,15.800859 178.71872,15.838183 C 178.87738,15.875526 179.09205,15.894193 179.36272,15.894183 C 180.09071,15.894193 180.49205,15.866193 180.56672,15.810183 C 180.63205,15.763526 180.69738,15.707526 180.76272,15.642183 C 180.82804,15.57686 180.87471,15.53486 180.90272,15.516183 C 180.94004,15.497526 180.98204,15.488193 181.02872,15.488183 C 181.16871,15.488193 181.35071,15.670193 181.57472,16.034183 L 181.64472,16.244183 C 181.65404,16.318859 181.57004,16.416859 181.39272,16.538183 C 181.22471,16.659525 181.12671,16.752858 181.09872,16.818183 C 181.04271,16.976858 180.92604,17.490191 180.74872,18.358183 C 180.66471,18.796856 180.56671,19.319522 180.45472,19.926183 L 180.41272,20.150183 C 180.38471,20.262188 180.39405,20.336855 180.44072,20.374183 C 180.49671,20.411521 180.61805,20.430188 180.80472,20.430183 C 181.19671,20.430188 181.56071,20.406855 181.89672,20.360183 C 182.03671,20.248188 182.19538,19.744189 182.37272,18.848183 C 182.45671,18.437523 182.54538,17.919524 182.63872,17.294183 C 182.74138,16.668858 182.81604,16.225526 182.86272,15.964183 C 182.90004,15.814859 182.92804,15.712193 182.94672,15.656183 C 182.97471,15.600193 183.01671,15.572193 183.07272,15.572183 C 183.16604,15.572193 183.24071,15.59086 183.29672,15.628183 C 183.35271,15.656193 183.39938,15.693526 183.43672,15.740183 C 183.47404,15.777526 183.57204,15.814859 183.73072,15.852183 C 183.89871,15.889526 184.12271,15.908193 184.40272,15.908183 C 184.70137,15.908193 184.91604,15.908193 185.04672,15.908183 C 185.17737,15.898859 185.29871,15.880193 185.41072,15.852183 C 185.52271,15.814859 185.58804,15.786859 185.60672,15.768183 C 185.63471,15.749526 185.70471,15.688859 185.81672,15.586183 C 185.92871,15.502193 186.02204,15.460193 186.09672,15.460183 C 186.19004,15.460193 186.32071,15.558193 186.48872,15.754183 C 186.65671,15.950193 186.73137,16.099526 186.71272,16.202183 C 186.69404,16.286192 186.59604,16.388859 186.41872,16.510183 C 186.24137,16.631525 186.14804,16.720192 186.13872,16.776183 L 185.56472,19.618183 L 185.46672,20.178183 C 185.44804,20.262188 185.46671,20.313521 185.52272,20.332183 M 184.72472,20.248183 C 184.79937,20.070855 184.92071,19.557522 185.08872,18.708183 C 185.33137,17.485524 185.45737,16.757525 185.46672,16.524183 C 185.48537,16.430859 185.45737,16.374859 185.38272,16.356183 L 183.66072,16.356183 C 183.58604,16.356192 183.52538,16.435525 183.47872,16.594183 C 183.15204,18.264857 182.88604,19.515522 182.68072,20.346183 L 182.72272,20.402183 C 183.96404,20.402188 184.63137,20.350855 184.72472,20.248183 M 178.78872,16.328183 C 178.72338,16.328192 178.67205,16.342192 178.63472,16.370183 C 178.59738,16.398192 178.56005,16.444859 178.52272,16.510183 C 178.48538,16.575525 178.45271,16.664192 178.42472,16.776183 C 178.39671,16.888192 178.36405,17.028191 178.32672,17.196183 C 178.29871,17.364191 178.26138,17.564858 178.21472,17.798183 C 177.87871,19.506189 177.72005,20.374188 177.73872,20.402183 L 179.11072,20.458183 C 179.32538,20.448855 179.47471,20.430188 179.55872,20.402183 C 179.64271,20.374188 179.70338,20.308855 179.74072,20.206183 C 179.95538,19.226189 180.12338,18.437523 180.24472,17.840183 C 180.32871,17.410858 180.38471,17.130858 180.41272,17.000183 C 180.44071,16.860192 180.45005,16.724858 180.44072,16.594183 C 180.44071,16.454192 180.41271,16.374859 180.35672,16.356183 L 178.78872,16.328183"
       id="text2413" />
  </g>
</svg>
