<?xml version="1.0" encoding="UTF-8" standalone="no"?>
<svg
   xmlns:dc="http://purl.org/dc/elements/1.1/"
   xmlns:cc="http://creativecommons.org/ns#"
   xmlns:rdf="http://www.w3.org/1999/02/22-rdf-syntax-ns#"
   xmlns:svg="http://www.w3.org/2000/svg"
   xmlns="http://www.w3.org/2000/svg"
   xmlns:sodipodi="http://sodipodi.sourceforge.net/DTD/sodipodi-0.dtd"
   xmlns:inkscape="http://www.inkscape.org/namespaces/inkscape"
   sodipodi:docname="calligraphy-f03.svg"
   inkscape:version="1.0beta1 (a4ee55bc41, 2019-11-15)"
   sodipodi:version="0.32"
   id="svg2367"
   viewBox="0 0 300 129"
   height="129"
   width="300"
   version="1.1">
  <defs
     id="defs3" />
  <sodipodi:namedview
     inkscape:window-maximized="0"
     inkscape:window-y="27"
     inkscape:window-x="54"
     inkscape:window-height="1053"
     inkscape:window-width="1866"
     inkscape:guide-bbox="true"
     showguides="true"
     units="px"
     showgrid="false"
     inkscape:document-rotation="0"
     inkscape:current-layer="layer1"
     inkscape:document-units="px"
     inkscape:cy="64.5"
     inkscape:cx="160"
     inkscape:zoom="1.4"
     inkscape:pageshadow="2"
     inkscape:pageopacity="0.0"
     borderopacity="1.0"
     bordercolor="#666666"
     pagecolor="#ffffff"
     id="base"
     inkscape:lockguides="true" />
  <metadata
     id="metadata4">
    <rdf:RDF>
      <cc:Work
         rdf:about="">
        <dc:format>image/svg+xml</dc:format>
        <dc:type
           rdf:resource="http://purl.org/dc/dcmitype/StillImage" />
        <dc:title />
      </cc:Work>
    </rdf:RDF>
  </metadata>
  <g
     id="layer1"
     inkscape:groupmode="layer"
     inkscape:label="Layer 1">
    <path
       d="m 13.007658,30.6517 c 3.651591,1.4891 5.049267,5.35 8.088945,7.4454 2.38761,1.6459 4.677971,-0.2829 6.646869,-1.1339 7.724145,-3.3391 15.76063,-6.2031 23.832166,-8.6925 2.14755,-0.6624 6.160159,-0.8763 8.1155,-1.8442 4.004335,-1.9824 -0.378785,-1.8788 3.844818,-1.5054 2.97107,6.2153 7.842999,14.9811 14.207294,18.8689 2.215316,1.3532 4.444118,-0.746 7.148522,0.9353 1.269396,0.4315 1.063549,0.6126 2.388137,-0.0097 2.539537,-1.1933 0.855949,-2.2925 0.834148,-2.2126 -0.541031,1.9854 0.494163,5.5011 3.20697,5.8838 1.185026,0.167 1.953683,-1.3148 2.93716,-1.9632 1.41351,-0.9319 2.819651,-1.8745 4.253705,-2.7777 10.963358,-6.9059 22.551148,-12.8777 33.902268,-19.1798 1.13659,-1.6572 10.57701,-4.6827 10.48521,-7.7087 -0.038,-1.252 -0.95435,-4.1144 -1.93812,-3.278 -2.65489,2.2572 -4.56455,9.5395 -1.0456,10.0917 4.22014,0.6624 11.34879,3.1039 12.81124,-0.7055 1.73127,-4.5096 -4.39123,-8.8043 -7.79697,-12.3556 -1.27646,-1.3311 -0.11871,3.8782 1.03603,5.3057 0.94189,1.1642 19.97495,2.8075 22.84702,3.1149 3.62355,3.7506 8.47318,-12.3668 10.79047,-7.8344 2.60539,5.096 0.13513,11.3247 0.26142,16.986 0.014,0.6279 0.35378,-1.3126 0.0755,-1.8827 -1.13239,-2.3191 -1.84898,-5.2952 -4.19528,-6.5546 -1.29721,-0.6963 -0.76552,2.9619 -0.12288,4.2368 0.53659,1.0643 2.10616,1.2595 3.18791,1.8432 7.63554,4.12 15.73043,7.4578 23.59601,11.1558 0.6212,0.3162 1.16292,1.0236 1.86361,0.9486 1.0906,-0.1167 2.57966,-2.3391 4.05996,-1.9513 1.54817,0.4055 1.97058,9.5628 8.72276,7.7803 6.10773,-1.6123 -1.03674,-7.983 2.10882,-6.0855 0.81887,0.3529 4.38113,2.0619 5.45233,1.8482 6.42934,-1.2828 19.86839,-23.6832 27.5109,-28.6001 2.43475,-1.0915 3.07882,-1.5392 5.70541,-2.0984 11.15531,-2.3748 19.18352,12.8749 27.06984,9.0458 0.39217,-0.479 0.78433,-0.9579 1.1765,-1.4369 l 0.91609,3.2909 c -0.64084,-0.0543 -1.28168,-0.1085 -1.92251,-0.1628 -12.14914,-1.9284 -19.57673,-15.4777 -32.72003,-8.099 -7.85018,5.0865 -11.58869,13.6388 -17.92324,20.1738 -2.18942,2.2586 -8.32533,5.6633 -9.52994,8.4013 -0.78954,1.7946 0.0547,5.0075 0.36235,6.749 -0.13527,1.5182 0.37168,3.9119 -2.45824,3.8818 -3.8544,-0.0411 -3.33885,-4.717 -5.83753,-6.334 -0.86195,-0.5579 -5.11232,-1.6963 -6.14513,-1.7518 -1.23694,-0.0664 -5.03191,2.3575 -5.9433,0.9859 -0.96336,-1.4499 0.10082,-3.5952 -0.79235,-5.0847 -0.34632,-0.5776 -1.23435,-0.6301 -1.85152,-0.9451 -3.83815,-1.8053 -25.24265,-12.8881 -26.86066,-13.0262 -1.42685,-0.1217 -2.9805,2.0874 -4.09555,1.235 -2.83964,-2.1708 -4.32881,-5.6327 -5.79742,-8.7977 -0.48661,-1.0486 0.0447,-4.578 0.12116,-3.4347 0.3548,5.3067 -2.01582,11.2923 0.71474,15.9375 1.80023,3.0625 11.1035,-12.1236 2.45647,-9.8412 -3.41118,-0.365 -21.1913,-3.7795 -22.91875,-3.1238 -1.76578,0.6702 -2.5,4.8708 -4.04282,3.8164 -4.69093,-3.2057 -11.07792,-8.0373 -10.01708,-13.4249 0.79112,-4.0179 8.62237,-1.7649 12.88372,-1.1339 5.61737,0.8317 1.32129,11.9987 1.23961,12.1537 -0.41084,0.78 -1.82872,-0.8225 -2.6997,-0.542 -3.17902,1.0235 -6.4638,8.2892 -10.59979,7.7594 -5.77678,3.2067 -38.9171,19.8039 -41.075129,23.9144 -2.07144,3.9457 0.974657,6.044 -3.025435,9.2719 C 85.3006,60.7938 83.963325,53.0599 81.902383,52.2741 78.145617,50.0346 79.668571,47.3411 77.450121,44.2994 76.137372,42.4996 64.575822,29.59 63.649833,29.5148 c -0.62469,-0.0506 -1.160594,0.45 -1.74089,0.675 -0.733803,-1.0556 -1.016266,-2.5541 -2.172291,-3.1847 -2.13312,-1.1635 -10.39742,2.5788 -12.238104,3.1936 -5.091257,1.7006 -10.149539,3.5146 -15.131207,5.4863 -10.281001,4.0693 -12.706565,6.1248 -5.270279,16.6504 z"
       id="path2071"
       style="display:block;fill:#000000;fill-opacity:1;fill-rule:nonzero;stroke:none;stroke-width:1pt;stroke-linecap:butt;stroke-linejoin:miter;stroke-opacity:1"
       inkscape:connector-curvature="0" />
    <path
       d="m 30.78894,78.1324 c -1.229386,-4.0789 0.0993,-10.6023 -3.55744,-13.8115 -1.52856,-1.3413 -7.80647,1.2727 -7.958485,0.9079 -1.558906,-3.7405 -2.69012,-7.9546 -1.975635,-11.9189 0.64689,-3.5892 9.444269,2.774 12.407222,1.4287 3.295423,-1.704 0.301647,0.2712 2.926069,-3.6225 1.054612,-1.5647 2.42939,-2.9101 4.636608,-2.4408 7.033415,1.4953 2.510553,8.9559 3.656246,12.5796 0.579554,1.8331 1.813415,1.9434 3.37943,2.5664 1.269174,0.1302 4.688285,1.9304 5.990915,1.1122 1.932336,-1.2138 1.966066,-7.0308 4.608975,-7.1425 3.628695,-0.1535 3.720589,6.2998 6.413152,7.806 1.788617,1.0007 5.074348,1.2848 7.088281,1.9146 4.958759,1.1755 11.365299,9.2182 16.509951,5.0127 2.080926,-1.7011 1.531942,-4.6692 4.31448,-5.4799 1.652793,-0.4959 2.805459,1.2301 4.301653,1.2156 0.750821,-0.0073 3.366866,-2.1937 3.725366,-2.4987 8.168692,-6.9498 7.974742,-16.0091 11.579932,-25.1534 0.49053,-3.5959 4.56597,-5.9948 5.78535,-9.1369 0.85344,-2.1992 -1.72128,-9.962 2.95332,-9.8952 4.83349,0.0691 3.82169,6.228 5.37261,8.7317 0.87126,1.4064 5.5173,3.4477 6.95548,4.4588 2.27384,1.4951 4.09958,3.4569 6.06827,5.2673 3.13179,2.88 5.57181,-4.2807 8.23151,-1.8262 0.20206,0.1865 -2.01731,4.1416 -2.17175,6.4693 -0.27479,4.1408 2.75789,5.0991 5.91547,7.181 1.41901,3.6702 5.51105,-2.6401 6.86544,0.1195 1.39006,2.8321 -0.69262,2.75 1.53676,5.4205 0.19934,0.2388 13.83542,9.2714 14.62742,9.6247 2.04889,0.9139 3.38024,-1.0266 4.75084,-2.0304 1.96687,-2.0254 -1.24715,2.7708 0.98394,5.405 0.44975,0.5309 27.81123,-1.3718 28.73863,-2.5094 1.46012,-1.791 -2.84453,-7.4673 -4.12087,-5.5543 -5.95309,8.9222 4.80601,7.1715 0.0815,7.788 -0.48777,-4.2965 -4.25773,-9.4746 -1.46331,-12.8894 1.93989,-2.3705 4.86295,3.9326 7.69295,5.2768 1.27433,0.6053 7.68912,-0.5654 8.30092,-0.6631 8.25057,-1.3176 18.04013,-2.6472 24.819,-7.7357 3.30275,-2.4793 3.06187,-7.1963 6.33997,-8.6801 10.53227,-4.4538 23.34091,-5.7893 29.64711,-16.1595 2.18189,-3.5879 3.14628,-7.6762 5.25261,-11.3051 l 0.38259,0.453 c -2.08283,3.6457 -3.07047,7.7473 -5.28473,11.328 -6.39622,10.3434 -19.13296,11.7523 -29.71677,16.1993 -8.26811,14.6405 -20.48304,13.6211 -36.18294,17.1764 -1.09996,0.2491 -3.34041,0.0484 -3.18426,1.1098 0.36613,2.4889 3.30375,8.6892 4.28216,6.3536 1.52825,-3.6483 -1.387,-7.7397 -2.0805,-11.6094 -0.0772,3.8229 3.24462,7.5708 2.23676,11.2732 -0.61935,2.2752 -5.81548,-1.7208 -6.89136,-1.7908 -2.21266,-0.1442 -4.30696,1.0515 -6.50738,1.3147 -6.34338,0.759 -12.81792,1.0969 -19.20905,1.2132 -1.05763,0.0192 -2.31148,-0.5913 -3.17343,-0.0103 -1.24428,0.8389 -3.01726,6.5337 -6.50739,5.1325 -0.75972,-0.305 -0.27768,-1.5414 -0.41652,-2.3122 0.72741,-2.0476 2.20255,-4.0718 0.95452,-6.2554 -1.71041,-2.9925 -11.14338,-8.957 -14.57386,-9.6021 -3.51554,-0.6611 -1.45905,1.3363 -4.69085,1.3471 -2.61804,0.0087 0.056,-7.3767 -3.71855,-6.8898 -11.13289,-7.3247 -5.00365,-0.7376 -13.92316,-1.349 -2.68472,-0.184 2.77538,-8.1586 2.87384,-8.9282 0.31128,-2.4329 -5.84645,-5.2468 -7.00548,-6.8186 -0.96252,-0.6789 -5.59694,-4.6864 -6.89751,-4.4387 -0.42678,0.0814 -5.99081,5.3191 -3.03805,5.6056 1.77553,0.1723 -1.23274,-3.5521 -2.82952,-4.3078 -3.65173,-1.7281 -6.32757,6.9614 -7.63744,8.867 -2.44235,6.2686 -2.57961,13.5892 -6.33618,19.333 -2.11613,3.2355 -7.423387,5.693 -8.960019,8.8728 -0.764018,1.581 -0.166686,3.5523 -1.10898,5.1098 -4.71013,7.1348 -19.340421,-4.5264 -24.572833,-6.2617 -2.536247,-0.7958 -6.834117,-3.009 -9.269792,-1.0343 -1.553725,1.2597 -1.455813,5.015 -3.485932,4.7833 -2.072465,-0.2364 -3.62391,-5.3159 -5.255551,-6.3159 -1.412124,-0.8655 -4.823536,0.3733 -6.11906,-1.1297 C 40.521962,62.9484 34.09279,66.7918 32.027598,62.7852 30.81015,60.4233 35.025743,60.7081 33.374463,57.2216 32.038067,54.4 32.14825,54.9024 29.875106,55.2958 c -8.695526,3.9714 9.758419,19.2306 -0.534245,-2.0385 -2.764559,-5.7128 -2.651768,6.5033 -0.595407,7.7922 4.115095,2.5794 6.945783,-4.6018 7.291374,-7.1142 z"
       id="path2072"
       style="display:block;fill:#000000;fill-opacity:1;fill-rule:nonzero;stroke:none;stroke-width:1pt;stroke-linecap:butt;stroke-linejoin:miter;stroke-opacity:1"
       inkscape:connector-curvature="0" />
    <path
       d="m 22.256033,97.773 c 5.20811,-7.5749 18.838705,-32.8994 32.069008,-26.4477 5.169025,6.5381 6.374236,15.0781 10.39639,22.2979 0.662016,1.1883 0.789329,3.4908 2.20657,3.4466 2.075078,-0.0647 6.108378,-3.936 7.25361,-5.5599 -3.769165,-5.6948 -4.984923,0.1197 0.487415,4.3924 2.441106,1.906 3.57565,1.5027 5.874954,-0.1237 8.539553,-7.974 16.077478,-17.5982 22.15925,-27.4212 0.22726,-0.3671 1.91185,-4.4804 2.05158,-4.4996 1.94948,-0.2673 3.1741,2.2718 4.98349,3.0096 5.9062,-0.5527 12.55646,3.4443 18.36268,2.6229 3.13508,-0.4436 2.94797,-4.8987 6.52063,-4.5167 3.2418,0.3467 2.06893,7.0433 2.28565,8.9873 -0.28227,2.3442 3.61986,2.0429 4.2333,3.4731 0.29867,0.6964 -0.8464,2.7228 -0.29316,4.0119 3.20644,7.4705 7.28322,-4.302 8.02535,-6.2203 3.92514,-0.5365 8.46837,-2.7857 7.90723,4.5937 -1.51061,19.8656 -1.26761,6.2012 -7.22399,8.4933 -0.49883,0.192 2.62922,9.8382 3.73828,10.0945 0.65871,0.1522 6.00362,-2.4916 6.26903,-1.7286 6.82195,19.6126 -0.63399,6.3036 -2.90125,14.0273 8.82178,1.2866 8.38135,2.2967 0.4191,-17.1022 -2.23103,-5.4356 -4.5154,8.7201 0.61296,9.6523 8.96348,1.6295 24.84981,-2.0455 33.71227,-3.4893 2.89608,-1.6134 23.48734,-2.6937 24.84759,-4.5105 1.17787,-1.5731 0.5848,-5.3624 3.31191,-6.2608 4.42924,-1.459 2.40367,7.8064 2.74964,8.6825 0.20824,0.5275 5.04152,1.8238 5.10504,1.8426 20.09787,3.9304 17.56211,-6.2627 27.06675,-16.4107 2.02786,-0.3956 2.36458,-3.8522 3.71701,-4.6949 1.15365,-0.719 2.80471,-0.2077 4.06954,-0.7325 6.6272,-2.7499 17.37807,-7.1238 21.75208,-12.735 l 0.75434,2.3433 c -5.4147,-0.4298 -24.53735,12.8679 -29.9815,16.3187 -9.55529,10.2905 -7.18356,20.4587 -27.49418,16.4808 -4.73414,-1.3966 -6.86859,-2.4686 -10.13767,2.3327 -1.74152,2.5577 4.37636,-7.5177 -2.73833,-6.2995 -7.67053,1.3134 -15.27605,2.9571 -22.95669,4.2203 -3.2272,0.5254 -35.02748,3.3336 -36.01216,4.4611 -2.37543,2.7201 -5.42036,11.152 -7.23905,8.0706 -11.18009,-18.9428 -9.0642,-17.8755 -0.0759,-18.4746 1.93557,0.8844 -0.5219,-0.4448 -0.6147,0.8541 -0.2337,3.271 -1.05142,6.9289 0.57985,9.82 1.2775,2.2642 4.57907,-3.6564 4.8009,-6.2152 0.0225,-0.259 -6.19338,-15.3893 -7.31449,-15.0107 -7.0364,2.3768 -2.83113,14.8442 3.44389,9.0983 -1.72074,-17.8388 -18.37423,4.3536 -16.18052,-11.1675 0.19409,-1.3732 -0.0632,-1.6397 -0.51205,-2.8658 -1.21988,-0.8817 -3.1478,-0.6791 -4.0482,-1.2619 -0.76294,-0.4938 1.26214,-1.4136 1.37018,-2.2832 0.22141,-1.7817 0.29852,-4.1934 -1.63718,-5.3019 -4.91798,-2.8163 -13.08135,-0.4804 -18.33661,-2.6206 -3.14438,0.6573 -2.01997,-0.2024 -3.34772,2.6085 -3.87345,0.9469 0.56866,-3.7688 -3.30935,-1.2121 -6.122252,4.0364 -13.51936,23.2355 -22.254644,27.4697 -5.785211,4.0682 -2.336321,16.6243 -11.003879,15.7247 -2.424103,-0.2516 -4.455654,-0.8667 -5.482502,-3.1811 -0.237714,-3.9397 2.27183,-7.5 2.274147,-11.3141 6.97e-4,-1.1478 -3.014104,-4.8557 -3.53899,-5.9257 -2.490222,-5.077 -3.889226,-10.5259 -6.204959,-15.658 -1.143009,-2.533 -1.015269,-2.1308 -2.687954,-4.0798 -11.307123,-5.855 -34.036379,23.4308 -12.157267,8.2503 z"
       id="path2073"
       style="display:block;fill:#000000;fill-opacity:1;fill-rule:nonzero;stroke:none;stroke-width:1pt;stroke-linecap:butt;stroke-linejoin:miter;stroke-opacity:1"
       inkscape:connector-curvature="0" />
    <path
       d="m 27.842968,2.3471 c 1.311038,3.4234 2.285372,10.0772 5.934094,12.1486 0.992653,0.5635 2.229017,-0.5899 3.341039,-0.8932 7.003819,-1.9098 13.934187,-4.0589 20.950479,-5.9271 3.595537,-0.9573 8.107011,-1.1798 11.569851,-2.3687 6.340476,-2.1768 1.370716,-8.2767 9.1006,-3.5631 -0.324935,1.7841 1.442777,11.4698 -3.688664,9.8467 -0.7277,-0.2302 -1.294384,-1.5881 -1.932494,-1.1846 -0.728355,0.4607 -0.29896,1.6731 -0.126275,2.4866 1.66461,7.842 17.873846,24.1716 24.05097,30.0156 2.814364,1.0509 8.857362,10.7629 12.340142,9.9192 5.32953,-1.2909 4.10682,-5.9076 9.0333,-2.706 1.34093,0.7075 3.57969,1.5746 4.03991,3.1463 0.77903,2.6602 -2.48816,10.1289 -2.97577,10.7316 -0.63727,0.7878 -2.25479,-0.6904 -3.13787,-0.1566 -0.62343,0.3768 -3.56717,25.8678 -3.78857,28.2102 1.244,4.4734 -2.80495,10.8385 -1.28575,15.1746 1.69409,4.8351 2.51567,1.7509 3.18346,6.5519 0.38835,2.7919 -3.17888,4.7994 -2.17778,7.359 0.38847,0.9933 3.24121,3.5642 4.24928,0.2656 1.73137,-5.6653 1.62362,-11.6954 2.43543,-17.543 -11.32958,-9.598 -8.2239,1.7438 -5.48969,8.4455 l -0.032,0.5794 c -4.48143,7.6469 -7.3044,15.7347 -16.771212,6.7825 0.80061,-5.9567 0.65367,-12.0983 2.401814,-17.8701 2.032928,-6.7121 8.267648,6.4496 11.716278,5.0742 0.0425,-0.0169 1.20244,-13.9061 1.27817,-15.165 0.82623,-8.6676 1.88452,-17.3349 3.38268,-25.9236 0.18175,-1.042 1.83641,-6.8699 -2.09357,-6.0919 -4.641,0.9188 -2.38879,8.0654 -1.71163,5.745 -5.85002,-4.3036 -1.14163,-5.0725 -2.77921,-11.4824 C 107.7638,49.6636 98.364942,47.6815 96.752218,43.4187 88.080563,35.2287 79.552194,25.989 73.746705,15.6954 72.090562,12.7589 70.585973,10.2806 68.995748,7.2133 68.513199,6.2825 67.97544,3.5839 67.425996,4.4808 c -1.382703,2.257 -0.983737,5.1357 -1.475605,7.7035 8.347692,1.8502 6.588987,-5.5962 3.736554,-6.2991 -1.789618,-0.441 -35.685526,9.0068 -35.809343,9.1829 -2.775378,3.9456 -0.551118,9.7775 -1.631992,14.0965 z"
       id="path2074"
       style="display:block;fill:#000000;fill-opacity:1;fill-rule:nonzero;stroke:none;stroke-width:1pt;stroke-linecap:butt;stroke-linejoin:miter;stroke-opacity:1"
       inkscape:connector-curvature="0" />
    <path
       d="m 163.09309,34.6292 c 7.55564,-1.214 6.62881,7.1447 11.54004,10.0867 3.94171,2.3611 15.54312,-9.0233 17.6691,-11.6909 2.86712,-1.9798 1.19798,-5.2109 2.67798,-7.6616 1.74276,-2.8858 5.92389,-0.6155 8.07215,-3.3296 1.87333,-2.3667 1.47427,-7.8515 5.63396,-6.3251 2.2217,1.324 3.22985,3.8454 5.35615,5.2585 1.67716,1.1146 4.17624,1.1451 6.06864,1.7798 1.74449,0.5852 5.84814,3.4148 7.6072,3.1947 2.50647,-0.3137 4.1806,-3.7336 5.37475,-5.4534 2.89848,0.582 3.69657,4.1267 4.92465,6.327 1.48436,2.6594 3.86263,4.4806 5.35523,7.0489 3.64575,6.2729 3.95288,14.7683 5.42695,21.6748 0.0486,6.7874 5.17853,12.4252 4.45218,18.8564 -0.38399,3.3998 -2.87054,5.9268 -2.95887,9.5733 0.32586,-0.7791 0.75885,5.1325 1.80078,4.0502 1.15082,-1.1954 0.77403,-3.1705 1.45453,-4.6545 0.73212,-1.5967 1.35869,2.5514 -1.39367,7.0129 -3.13354,5.0794 -1.17035,8.8265 4.82138,10.3261 7.87781,0.3924 14.49039,-4.3477 21.08932,-7.7933 l 0.19105,0.5514 c -6.69071,3.4944 -13.38539,8.2613 -21.37954,7.8146 -7.61694,-1.9059 -4.28188,-4.7087 -7.56466,-7.1365 -1.56436,-1.1569 -3.75611,0.2801 -5.34014,-0.1971 -1.55583,-0.4688 -0.63981,-12.6769 3.91428,-12.1879 3.94066,-4.6295 2.33617,-19.3491 0.44781,-25.8386 -0.96671,-4.5187 -1.97289,-25.1983 -9.79371,-25.03 -3.13336,0.0674 -4.13059,3.1618 -6.60957,3.7323 -2.52671,-2.3019 -2.21122,-5.7634 -4.37337,-8.1166 -0.86712,-0.9438 -2.398,-1.0486 -3.59558,-1.5759 -5.75132,-2.532 -11.26754,-4.3777 -14.13891,2.6446 -1.39207,2.0972 -3.6894,-2.4644 -5.88668,-2.7697 -3.63219,-0.5046 -3.43055,4.2082 -5.74233,5.4568 -4.33158,2.3395 2.52367,-1.8666 -3.21606,0.3458 -0.42657,0.1643 -2.19821,2.7125 -2.33981,2.9067 -2.56385,3.1943 -5.35617,6.1148 -8.88968,8.38 -2.05066,1.3145 -7.54618,2.5234 -8.81196,4.4833 -2.28434,3.5369 -4.66139,12.9105 2.05101,12.6587 z"
       id="path2076"
       style="display:block;fill:#000000;fill-opacity:1;fill-rule:nonzero;stroke:none;stroke-width:1pt;stroke-linecap:butt;stroke-linejoin:miter;stroke-opacity:1"
       inkscape:connector-curvature="0" />
    <path
       d="m 177.02576,99.8 c -0.0953,2.8848 -3.46881,1.0403 -1.84917,4.6874 0.84509,1.903 3.93328,6.4477 6.45138,6.5669 2.76056,0.1307 16.62582,-18.1306 18.61337,-20.8966 5.52676,-3.2256 -0.42592,-9.5467 3.20147,-13.3044 0.38912,-0.4031 7.85644,-2.3343 5.88158,-3.6933 -1.82951,-1.2589 -3.73185,0.6821 -1.87864,2.2332 3.86504,2.7708 5.30249,-1.6158 8.56116,-2.7133 2.95636,-0.9957 5.19021,1.6049 7.14609,-1.7247 4.3482,-2.4062 10.06908,3.5988 13.45694,-2.5424 0.90896,-1.6476 0.69779,-3.8578 2.08078,-5.2083 2.72055,-1.2064 6.31338,1.0779 8.8063,-0.9493 1.12746,-0.9168 1.47398,-4.062 3.15201,-4.2324 2.31586,-0.2353 3.2701,3.4698 4.36091,4.0426 1.49049,0.7826 8.4984,-2.9953 9.61616,-3.4908 8.16883,-3.8767 13.98446,-10.4061 19.70804,-16.9222 l 0.32122,0.494 c -5.76047,6.5553 -11.63978,13.0982 -19.8629,16.9867 -1.19729,0.5285 -8.96006,2.5289 -9.68611,3.5108 -1.19631,1.6179 -0.20711,4.4988 -1.90514,5.6449 -1.87312,1.2642 -5.30659,-4.5853 -9.10997,6.5893 -7.16804,4.3654 -5.95657,-9.0513 -14.24976,6.6879 -0.66931,1.2702 -1.56016,1.8647 -3.01551,2.1205 -5.21713,-0.2432 -11.92524,1.8589 -12.24272,7.0508 -0.42557,2.7928 -4.22862,7.0085 -7.14258,3.5413 -2.1837,-2.5983 3.05118,-3.8745 -1.97974,-7.0946 -2.97863,-1.9064 -3.44516,1.9014 -4.86743,3.4484 -2.97875,4.1391 -6.02128,8.2226 -9.411,12.0733 -2.06742,2.3485 -8.16449,6.199 -9.31331,8.8819 -1.63961,3.8292 1.21138,10.5915 -1.54252,14.0124 -3.85043,4.783 -2.86922,0.2337 -3.30091,2.7593 z"
       id="path2079"
       style="display:block;fill:#000000;fill-opacity:1;fill-rule:nonzero;stroke:none;stroke-width:1pt;stroke-linecap:butt;stroke-linejoin:miter;stroke-opacity:1"
       inkscape:connector-curvature="0" />
  </g>
</svg>
